Session 2/Waveforms/WaveForms/2/HO_COM.csv

CH1,Start,Increment,
Volt,-1.200000e-04,2.000000e-07
-5.800000e+00,
-5.200000e+00,
-5.200000e+00,
-5.800000e+00,
-5.200000e+00,
-5.800000e+00,
-5.200000e+00,
-5.800000e+00,
-5.800000e+00,
-5.200000e+00,
-5.800000e+00,
-5.200000e+00,
-5.200000e+00,
-5.800000e+00,
-5.200000e+00,
-5.800000e+00,
-5.200000e+00,
-5.800000e+00,
-5.200000e+00,
-5.800000e+00,
-5.800000e+00,
-5.200000e+00,
-5.800000e+00,
-5.200000e+00,
-5.200000e+00,
-5.800000e+00,
-5.200000e+00,
-5.800000e+00,
-5.800000e+00,
-5.200000e+00,
-5.200000e+00,
-5.800000e+00,
-5.800000e+00,
-5.200000e+00,
-5.800000e+00,
-5.200000e+00,
-5.200000e+00,
-5.800000e+00,
-5.800000e+00,
-5.200000e+00,
-5.800000e+00,
-5.200000e+00,
-5.200000e+00,
-5.800000e+00,
-5.800000e+00,
-5.200000e+00,
-5.800000e+00,
-5.200000e+00,
-5.200000e+00,
-5.800000e+00,
-5.200000e+00,
-5.800000e+00,
-5.800000e+00,
-5.200000e+00,
-5.800000e+00,
-5.200000e+00,
-5.800000e+00,
-5.200000e+00,
-5.800000e+00,
-5.200000e+00,
-5.800000e+00,
-5.200000e+00,
-5.800000e+00,
-5.200000e+00,
-5.800000e+00,
-5.200000e+00,
-5.800000e+00,
-5.200000e+00,
-5.800000e+00,
-5.200000e+00,
-5.200000e+00,
-5.800000e+00,
-5.200000e+00,
-5.800000e+00,
-5.200000e+00,
-5.800000e+00,
-5.800000e+00,
-5.200000e+00,
-5.800000e+00,
-5.200000e+00,
-5.800000e+00,
-5.200000e+00,
-5.800000e+00,
-5.200000e+00,
-5.200000e+00,
-5.800000e+00,
-5.200000e+00,
-5.800000e+00,
-5.200000e+00,
-5.800000e+00,
-5.800000e+00,
-5.200000e+00,
-5.800000e+00,
-5.200000e+00,
-5.800000e+00,
-5.200000e+00,
-5.800000e+00,
-5.200000e+00,
-5.000000e+00,
-8.600000e+00,
-2.000000e+00,
-8.800000e+00,
-6.800000e+00,
-4.800000e+00,
-6.600000e+00,
-4.600000e+00,
7.200000e+00,
-6.600000e+00,
2.200000e+00,
-9.800000e+00,
-4.600000e+00,
-5.600000e+00,
-4.800000e+00,
-5.600000e+00,
-5.600000e+00,
-4.800000e+00,
-4.800000e+00,
-5.600000e+00,
-5.400000e+00,
-4.800000e+00,
-5.400000e+00,
-4.800000e+00,
-4.800000e+00,
-5.600000e+00,
-5.400000e+00,
-4.800000e+00,
-5.400000e+00,
-4.800000e+00,
-4.800000e+00,
-5.600000e+00,
-4.800000e+00,
-5.400000e+00,
-4.800000e+00,
-5.600000e+00,
-4.800000e+00,
-5.400000e+00,
-5.400000e+00,
-4.800000e+00,
-4.800000e+00,
-5.600000e+00,
-5.400000e+00,
-4.800000e+00,
-4.800000e+00,
-5.400000e+00,
-5.400000e+00,
-4.800000e+00,
-4.800000e+00,
-5.400000e+00,
-5.400000e+00,
-4.800000e+00,
-4.800000e+00,
-5.400000e+00,
-4.800000e+00,
-5.400000e+00,
-5.400000e+00,
-4.800000e+00,
-5.400000e+00,
-4.800000e+00,
-5.400000e+00,
-4.800000e+00,
-4.800000e+00,
-5.400000e+00,
-5.400000e+00,
-4.800000e+00,
-5.400000e+00,
-4.800000e+00,
-5.400000e+00,
-4.800000e+00,
-4.800000e+00,
-5.400000e+00,
-5.400000e+00,
-4.800000e+00,
-5.400000e+00,
-4.600000e+00,
-5.400000e+00,
-4.800000e+00,
-5.400000e+00,
-4.800000e+00,
-4.800000e+00,
-5.400000e+00,
-4.800000e+00,
-5.400000e+00,
-5.400000e+00,
-4.600000e+00,
-5.400000e+00,
-4.800000e+00,
-5.400000e+00,
-4.800000e+00,
-4.800000e+00,
-5.400000e+00,
-5.400000e+00,
-4.600000e+00,
-4.600000e+00,
-5.400000e+00,
-5.400000e+00,
-4.400000e+00,
-5.600000e+00,
-4.400000e+00,
-4.400000e+00,
-5.600000e+00,
-5.400000e+00,
-4.600000e+00,
-4.600000e+00,
-6.400000e+00,
-4.000000e+00,
-6.600000e+00,
-6.400000e+00,
-4.600000e+00,
-5.200000e+00,
-5.800000e+00,
-5.200000e+00,
-5.800000e+00,
-5.200000e+00,
-5.800000e+00,
-5.200000e+00,
-5.800000e+00,
-5.200000e+00,
-5.800000e+00,
-5.800000e+00,
-5.200000e+00,
-5.200000e+00,
-5.800000e+00,
-5.800000e+00,
-5.200000e+00,
-5.200000e+00,
-5.800000e+00,
-5.800000e+00,
-5.200000e+00,
-5.200000e+00,
-5.800000e+00,
-5.800000e+00,
-5.200000e+00,
-5.200000e+00,
-5.800000e+00,
-5.200000e+00,
-5.800000e+00,
-5.800000e+00,
-5.200000e+00,
-5.200000e+00,
-5.800000e+00,
-5.800000e+00,
-5.200000e+00,
-5.200000e+00,
-5.800000e+00,
-5.200000e+00,
-5.800000e+00,
-5.200000e+00,
-5.800000e+00,
-5.200000e+00,
-5.800000e+00,
-5.200000e+00,
-5.800000e+00,
-5.200000e+00,
-5.800000e+00,
-5.200000e+00,
-5.800000e+00,
-5.800000e+00,
-5.200000e+00,
-5.800000e+00,
-5.000000e+00,
-5.800000e+00,
-5.200000e+00,
-5.200000e+00,
-5.800000e+00,
-5.800000e+00,
-5.200000e+00,
-5.800000e+00,
-5.200000e+00,
-5.800000e+00,
-5.200000e+00,
-5.200000e+00,
-5.800000e+00,
-5.800000e+00,
-5.200000e+00,
-5.200000e+00,
-5.800000e+00,
-5.200000e+00,
-5.800000e+00,
-5.200000e+00,
-5.800000e+00,
-5.200000e+00,
-5.800000e+00,
-5.800000e+00,
-5.200000e+00,
-5.200000e+00,
-5.800000e+00,
-5.200000e+00,
-5.800000e+00,
-5.800000e+00,
-5.200000e+00,
-5.800000e+00,
-5.000000e+00,
-5.200000e+00,
-5.800000e+00,
-5.200000e+00,
-5.800000e+00,
-5.800000e+00,
-5.200000e+00,
-5.200000e+00,
-5.800000e+00,
-5.800000e+00,
-5.000000e+00,
-5.200000e+00,
-5.800000e+00,
-5.200000e+00,
-5.800000e+00,
-5.200000e+00,
-5.800000e+00,
-5.200000e+00,
-5.800000e+00,
-5.200000e+00,
-5.800000e+00,
-5.800000e+00,
-5.200000e+00,
-5.200000e+00,
-5.800000e+00,
-5.200000e+00,
-5.800000e+00,
-5.200000e+00,
-5.800000e+00,
-5.200000e+00,
-5.800000e+00,
-5.200000e+00,
-5.800000e+00,
-5.200000e+00,
-5.800000e+00,
-5.800000e+00,
-5.000000e+00,
-5.200000e+00,
-5.800000e+00,
-5.200000e+00,
-5.800000e+00,
-5.200000e+00,
-5.800000e+00,
-5.000000e+00,
-5.800000e+00,
-5.200000e+00,
-5.800000e+00,
-5.800000e+00,
-5.200000e+00,
-5.800000e+00,
-5.000000e+00,
-5.200000e+00,
-5.800000e+00,
-5.800000e+00,
-5.200000e+00,
-5.800000e+00,
-5.200000e+00,
-5.800000e+00,
-5.200000e+00,
-5.800000e+00,
-5.200000e+00,
-6.800000e+00,
-4.000000e+00,
-6.800000e+00,
-4.200000e+00,
2.000000e-01,
-8.600000e+00,
-3.400000e+00,
-7.200000e+00,
-4.600000e+00,
-6.200000e+00,
-5.000000e+00,
-5.800000e+00,
-5.200000e+00,
-5.800000e+00,
-5.800000e+00,
-5.200000e+00,
-5.200000e+00,
-5.800000e+00,
-5.200000e+00,
-5.800000e+00,
-5.200000e+00,
-5.800000e+00,
-5.200000e+00,
-5.800000e+00,
-5.200000e+00,
-5.800000e+00,
-5.800000e+00,
-5.200000e+00,
-5.800000e+00,
-5.200000e+00,
-5.200000e+00,
-5.800000e+00,
-5.200000e+00,
-5.800000e+00,
-5.200000e+00,
-5.800000e+00,
-5.800000e+00,
-5.200000e+00,
-5.800000e+00,
-5.200000e+00,
-5.200000e+00,
-5.800000e+00,
-5.200000e+00,
-5.800000e+00,
-5.200000e+00,
-5.800000e+00,
-5.800000e+00,
-5.200000e+00,
-5.200000e+00,
-5.800000e+00,
-5.800000e+00,
-5.200000e+00,
-5.800000e+00,
-5.200000e+00,
-5.200000e+00,
-5.800000e+00,
-5.200000e+00,
-5.800000e+00,
-5.200000e+00,
-5.800000e+00,
-5.200000e+00,
-5.800000e+00,
-5.200000e+00,
-5.800000e+00,
-5.200000e+00,
-5.800000e+00,
-5.800000e+00,
-5.200000e+00,
-5.800000e+00,
-5.200000e+00,
-5.800000e+00,
-5.200000e+00,
-5.800000e+00,
-5.200000e+00,
-5.800000e+00,
-5.200000e+00,
-5.200000e+00,
-5.800000e+00,
-5.800000e+00,
-5.200000e+00,
-5.200000e+00,
-5.800000e+00,
-5.200000e+00,
-5.800000e+00,
-5.800000e+00,
-5.200000e+00,
-5.800000e+00,
-5.200000e+00,
-5.800000e+00,
-5.000000e+00,
-5.000000e+00,
-6.000000e+00,
-5.200000e+00,
-6.000000e+00,
-4.600000e+00,
-6.200000e+00,
-5.000000e+00,
-6.000000e+00,
-5.800000e+00,
-5.200000e+00,
-5.200000e+00,
-5.800000e+00,
-5.200000e+00,
-5.800000e+00,
-5.200000e+00,
-5.800000e+00,
-5.200000e+00,
-5.800000e+00,
-5.200000e+00,
-5.800000e+00,
-5.800000e+00,
-5.200000e+00,
-5.200000e+00,
-5.800000e+00,
-5.200000e+00,
-5.800000e+00,
-5.200000e+00,
-5.800000e+00,
-5.800000e+00,
-5.200000e+00,
-5.200000e+00,
-5.800000e+00,
-5.200000e+00,
-5.800000e+00,
-5.800000e+00,
-5.200000e+00,
-5.800000e+00,
-5.200000e+00,
-5.200000e+00,
-5.800000e+00,
-5.800000e+00,
-5.200000e+00,
-5.800000e+00,
-5.200000e+00,
-5.800000e+00,
-5.000000e+00,
-5.000000e+00,
-5.800000e+00,
-5.200000e+00,
-5.800000e+00,
-5.200000e+00,
-5.800000e+00,
-5.200000e+00,
-5.800000e+00,
-5.200000e+00,
-5.800000e+00,
-5.800000e+00,
-5.000000e+00,
-5.800000e+00,
-5.200000e+00,
-5.800000e+00,
-5.200000e+00,
-5.200000e+00,
-5.800000e+00,
-5.200000e+00,
-5.800000e+00,
-5.200000e+00,
-5.800000e+00,
-5.200000e+00,
-5.800000e+00,
-5.200000e+00,
-5.800000e+00,
-5.800000e+00,
-5.000000e+00,
-5.200000e+00,
-5.800000e+00,
-5.200000e+00,
-5.800000e+00,
-5.800000e+00,
-5.200000e+00,
-5.800000e+00,
-5.200000e+00,
-5.200000e+00,
-5.800000e+00,
-5.200000e+00,
-5.800000e+00,
-5.200000e+00,
-5.800000e+00,
-5.200000e+00,
-5.800000e+00,
-5.800000e+00,
-5.200000e+00,
-5.200000e+00,
-5.800000e+00,
-5.200000e+00,
-5.800000e+00,
-5.200000e+00,
-5.800000e+00,
-5.200000e+00,
-5.800000e+00,
-5.200000e+00,
-5.800000e+00,
-5.200000e+00,
-5.800000e+00,
-5.800000e+00,
-5.000000e+00,
-5.800000e+00,
-5.200000e+00,
-5.200000e+00,
-5.800000e+00,
-5.800000e+00,
-5.200000e+00,
-5.200000e+00,
-5.800000e+00,
-5.800000e+00,
-5.200000e+00,
-5.800000e+00,
-5.000000e+00,
-5.200000e+00,
-5.800000e+00,
-5.200000e+00,
-5.800000e+00,
-5.200000e+00,
-5.800000e+00,
-5.200000e+00,
-5.800000e+00,
-5.200000e+00,
-5.800000e+00,
-5.200000e+00,
-5.800000e+00,
-5.800000e+00,
-5.200000e+00,
-5.200000e+00,
-5.800000e+00,
-5.800000e+00,
-5.200000e+00,
-5.800000e+00,
-5.200000e+00,
-5.200000e+00,
-5.800000e+00,
-5.200000e+00,
-5.800000e+00,
-5.200000e+00,
-5.800000e+00,
-5.200000e+00,
-5.800000e+00,
-5.200000e+00,
-5.800000e+00,
-5.200000e+00,
-5.800000e+00,
-5.800000e+00,
-5.000000e+00,
-5.200000e+00,
-5.800000e+00,
-5.800000e+00,
-5.000000e+00,
-5.000000e+00,
-8.600000e+00,
-2.000000e+00,
-8.800000e+00,
-6.800000e+00,
-4.600000e+00,
-6.600000e+00,
-4.600000e+00,
7.000000e+00,
-7.200000e+00,
-9.800000e+00,
2.200000e+00,
-4.400000e+00,
-5.600000e+00,
-4.800000e+00,
-5.600000e+00,
-5.400000e+00,
-4.800000e+00,
-5.400000e+00,
-4.800000e+00,
-5.400000e+00,
-4.800000e+00,
-5.400000e+00,
-4.800000e+00,
-5.400000e+00,
-4.800000e+00,
-5.400000e+00,
-4.800000e+00,
-5.400000e+00,
-4.800000e+00,
-4.800000e+00,
-5.400000e+00,
-4.800000e+00,
-5.600000e+00,
-5.400000e+00,
-4.800000e+00,
-5.400000e+00,
-4.800000e+00,
-4.800000e+00,
-5.400000e+00,
-5.400000e+00,
-4.800000e+00,
-4.800000e+00,
-5.400000e+00,
-4.800000e+00,
-5.400000e+00,
-4.800000e+00,
-5.400000e+00,
-5.400000e+00,
-4.800000e+00,
-4.800000e+00,
-5.400000e+00,
-4.600000e+00,
-5.400000e+00,
-4.800000e+00,
-5.400000e+00,
-5.400000e+00,
-4.600000e+00,
-5.400000e+00,
-4.600000e+00,
-5.400000e+00,
-4.600000e+00,
-4.800000e+00,
-5.400000e+00,
-5.400000e+00,
-4.600000e+00,
-5.400000e+00,
-4.600000e+00,
-5.400000e+00,
-4.600000e+00,
-5.400000e+00,
-4.800000e+00,
-5.400000e+00,
-4.600000e+00,
-5.400000e+00,
-4.600000e+00,
-4.600000e+00,
-5.400000e+00,
-4.600000e+00,
-5.400000e+00,
-5.400000e+00,
-4.600000e+00,
-5.400000e+00,
-4.600000e+00,
-5.400000e+00,
-4.600000e+00,
-5.400000e+00,
-4.600000e+00,
-5.400000e+00,
-4.600000e+00,
-5.400000e+00,
-4.600000e+00,
-5.400000e+00,
-4.600000e+00,
-5.400000e+00,
-4.600000e+00,
-5.400000e+00,
-4.400000e+00,
-4.400000e+00,
-5.800000e+00,
-4.400000e+00,
-5.600000e+00,
-5.400000e+00,
-4.600000e+00,
-4.600000e+00,
-6.400000e+00,
-4.000000e+00,
-6.600000e+00,
-6.400000e+00,
-4.800000e+00,
-5.800000e+00,
-5.200000e+00,
-5.200000e+00,
-5.800000e+00,
-5.200000e+00,
-5.800000e+00,
-5.000000e+00,
-5.800000e+00,
-5.800000e+00,
-5.200000e+00,
-5.800000e+00,
-5.200000e+00,
-5.200000e+00,
-5.800000e+00,
-5.200000e+00,
-5.800000e+00,
-5.800000e+00,
-5.200000e+00,
-5.200000e+00,
-5.800000e+00,
-5.800000e+00,
-5.200000e+00,
-5.200000e+00,
-5.800000e+00,
-5.800000e+00,
-5.200000e+00,
-5.200000e+00,
-5.800000e+00,
-5.000000e+00,
-5.800000e+00,
-5.200000e+00,
-5.800000e+00,
-5.800000e+00,
-5.200000e+00,
-5.200000e+00,
-5.800000e+00,
-5.800000e+00,
-5.200000e+00,
-5.200000e+00,
-5.800000e+00,
-5.800000e+00,
-5.200000e+00,
-5.200000e+00,
-5.800000e+00,
-5.200000e+00,
-5.800000e+00,
-5.200000e+00,
-5.800000e+00,
-5.200000e+00,
-5.800000e+00,
-5.200000e+00,
-5.800000e+00,
-5.800000e+00,
-5.200000e+00,
-5.200000e+00,
-5.800000e+00,
-5.200000e+00,
-5.800000e+00,
-5.200000e+00,
-5.800000e+00,
-5.200000e+00,
-5.800000e+00,
-5.200000e+00,
-5.800000e+00,
-5.800000e+00,
-5.200000e+00,
-5.200000e+00,
-5.800000e+00,
-5.200000e+00,
-5.800000e+00,
-5.200000e+00,
-5.800000e+00,
-5.200000e+00,
-5.800000e+00,
-5.800000e+00,
-5.200000e+00,
-5.200000e+00,
-5.800000e+00,
-5.200000e+00,
-5.800000e+00,
-5.800000e+00,
-5.200000e+00,
-5.200000e+00,
-5.800000e+00,
-5.200000e+00,
-5.800000e+00,
-5.800000e+00,
-5.200000e+00,
-5.800000e+00,
-5.200000e+00,
-5.800000e+00,
-5.200000e+00,
-5.200000e+00,
-5.800000e+00,
-5.200000e+00,
-5.800000e+00,
-5.200000e+00,
-5.800000e+00,
-5.200000e+00,
-5.800000e+00,
-5.800000e+00,
-5.200000e+00,
-5.200000e+00,
-5.800000e+00,
-5.200000e+00,
-5.800000e+00,
-5.200000e+00,
-5.800000e+00,
-5.200000e+00,
-5.800000e+00,
-5.200000e+00,
-5.800000e+00,
-5.200000e+00,
-5.800000e+00,
-5.800000e+00,
-5.200000e+00,
-5.200000e+00,
-5.800000e+00,
-5.800000e+00,
-5.200000e+00,
-5.200000e+00,
-5.800000e+00,
-5.200000e+00,
-5.800000e+00,
-5.200000e+00,
-5.800000e+00,
-5.800000e+00,
-5.200000e+00,
-5.200000e+00,
-5.800000e+00,
-5.200000e+00,
-5.800000e+00,
-5.200000e+00,
-5.800000e+00,
-5.800000e+00,
-5.200000e+00,
-5.800000e+00,
-5.200000e+00,
-5.200000e+00,
-5.800000e+00,
-5.200000e+00,
-5.800000e+00,
-5.800000e+00,
-5.200000e+00,
-6.800000e+00,
-4.000000e+00,
-7.000000e+00,
-4.000000e+00,
2.000000e-01,
-8.600000e+00,
-3.200000e+00,
-7.200000e+00,
-4.600000e+00,
-6.400000e+00,
-5.200000e+00,
-5.800000e+00,
-5.800000e+00,
-5.200000e+00,
-5.800000e+00,
-5.200000e+00,
-5.200000e+00,
-5.800000e+00,
-5.200000e+00,
-5.800000e+00,
-5.200000e+00,
-5.800000e+00,
-5.200000e+00,
-5.800000e+00,
-5.800000e+00,
-5.200000e+00,
-5.200000e+00,
-5.800000e+00,
-5.200000e+00,
-5.800000e+00,
-5.800000e+00,
-5.200000e+00,
-5.800000e+00,
-5.200000e+00,
-5.800000e+00,
-5.200000e+00,
-5.200000e+00,
-5.800000e+00,
-5.800000e+00,
-5.200000e+00,
-5.800000e+00,
-5.200000e+00,
-5.800000e+00,
-5.200000e+00,
-5.800000e+00,
-5.200000e+00,
-5.800000e+00,
-5.200000e+00,
-5.800000e+00,
-5.200000e+00,
-5.800000e+00,
-5.200000e+00,
-5.800000e+00,
-5.200000e+00,
-5.800000e+00,
-5.200000e+00,
-5.200000e+00,
-5.800000e+00,
-5.200000e+00,
-5.800000e+00,
-5.800000e+00,
-5.200000e+00,
-5.200000e+00,
-5.800000e+00,
-5.800000e+00,
-5.200000e+00,
-5.800000e+00,
-5.200000e+00,
-5.800000e+00,
-5.200000e+00,
-5.200000e+00,
-5.800000e+00,
-5.800000e+00,
-5.200000e+00,
-5.200000e+00,
-5.800000e+00,
-5.200000e+00,
-5.800000e+00,
-5.200000e+00,
-5.800000e+00,
-5.800000e+00,
-5.200000e+00,
-5.800000e+00,
-5.200000e+00,
-5.800000e+00,
-5.200000e+00,
-5.200000e+00,
-5.800000e+00,
-5.200000e+00,
-5.800000e+00,
-5.800000e+00,
-5.200000e+00,
-5.800000e+00,
-5.200000e+00,
-4.600000e+00,
-6.400000e+00,
-5.000000e+00,
-6.000000e+00,
-5.800000e+00,
-5.200000e+00,
-5.200000e+00,
-5.800000e+00,
-5.200000e+00,
-5.800000e+00,
-5.200000e+00,
-5.800000e+00,
-5.800000e+00,
-5.200000e+00,
-5.800000e+00,
-5.200000e+00,
-5.200000e+00,
-5.800000e+00,
-5.200000e+00,
-5.800000e+00,
-5.800000e+00,
-5.200000e+00,
-5.200000e+00,
-5.800000e+00,
-5.800000e+00,
-5.200000e+00,
-5.800000e+00,
-5.200000e+00,
-5.800000e+00,
-5.200000e+00,
-5.800000e+00,
-5.200000e+00,
-5.200000e+00,
-5.800000e+00,
-5.200000e+00,
-5.800000e+00,
-5.800000e+00,
-5.200000e+00,
-5.800000e+00,
-5.200000e+00,
-5.800000e+00,
-5.200000e+00,
-5.800000e+00,
-5.200000e+00,
-5.200000e+00,
-5.800000e+00,
-5.800000e+00,
-5.200000e+00,
-5.200000e+00,
-5.800000e+00,
-5.800000e+00,
-5.200000e+00,
-5.200000e+00,
-5.800000e+00,
-5.800000e+00,
-5.200000e+00,
-5.800000e+00,
-5.200000e+00,
-5.800000e+00,
-5.200000e+00,
-5.200000e+00,
-5.800000e+00,
-5.800000e+00,
-5.200000e+00,
-5.800000e+00,
-5.200000e+00,
-5.800000e+00,
-5.200000e+00,
-5.800000e+00,
-5.000000e+00,
-5.200000e+00,
-5.800000e+00,
-5.200000e+00,
-5.800000e+00,
-5.200000e+00,
-5.800000e+00,
-5.800000e+00,
-5.200000e+00,
-5.200000e+00,
-5.800000e+00,
-5.800000e+00,
-5.200000e+00,
-5.800000e+00,
-5.200000e+00,
-5.200000e+00,
-5.800000e+00,
-5.800000e+00,
-5.200000e+00,
-5.200000e+00,
-5.800000e+00,
-5.200000e+00,
-5.800000e+00,
-5.200000e+00,
-5.800000e+00,
-5.800000e+00,
-5.000000e+00,
-5.200000e+00,
-5.800000e+00,
-5.200000e+00,
-5.800000e+00,
-5.200000e+00,
-5.800000e+00,
-5.200000e+00,
-5.800000e+00,
-5.800000e+00,
-5.200000e+00,
-5.800000e+00,
-5.000000e+00,
-5.200000e+00,
-5.800000e+00,
-5.200000e+00,
-5.800000e+00,
-5.200000e+00,
-5.800000e+00,
-5.800000e+00,
-5.200000e+00,
-5.200000e+00,
-5.800000e+00,
-5.800000e+00,
-5.200000e+00,
-5.200000e+00,
-5.800000e+00,
-5.200000e+00,
-5.800000e+00,
-5.800000e+00,
-5.200000e+00,
-5.800000e+00,
-5.200000e+00,
-5.800000e+00,
-5.200000e+00,
-5.800000e+00,
-5.200000e+00,
-5.200000e+00,
-5.800000e+00,
-5.800000e+00,
-5.200000e+00,
-5.800000e+00,
-5.200000e+00,
-5.800000e+00,
-5.200000e+00,
-5.200000e+00,
-5.800000e+00,
-5.200000e+00,
-5.800000e+00,
-5.200000e+00,
-5.800000e+00,
-5.800000e+00,
-5.200000e+00,
-5.200000e+00,
-5.800000e+00,
-5.200000e+00,
-5.800000e+00,
-5.000000e+00,
-8.400000e+00,
-2.000000e+00,
-8.800000e+00,
-6.800000e+00,
-4.600000e+00,
-6.600000e+00,
-4.600000e+00,
7.200000e+00,
-7.400000e+00,
-9.800000e+00,
2.400000e+00,
-4.400000e+00,
-5.600000e+00,
-4.800000e+00,
-5.600000e+00,
-5.400000e+00,
-4.800000e+00,
-5.400000e+00,
-4.800000e+00,
-4.800000e+00,
-5.400000e+00,
-4.800000e+00,
-5.600000e+00,
-4.800000e+00,
-5.400000e+00,
-5.400000e+00,
-4.800000e+00,
-4.800000e+00,
-5.600000e+00,
-5.400000e+00,
-4.800000e+00,
-5.400000e+00,
-4.800000e+00,
-5.400000e+00,
-4.800000e+00,
-4.800000e+00,
-5.400000e+00,
-5.400000e+00,
-4.800000e+00,
-5.400000e+00,
-4.800000e+00,
-4.800000e+00,
-5.400000e+00,
-5.400000e+00,
-4.800000e+00,
-4.800000e+00,
-5.400000e+00,
-4.800000e+00,
-5.600000e+00,
-5.400000e+00,
-4.800000e+00,
-5.400000e+00,
-4.800000e+00,
-4.800000e+00,
-5.400000e+00,
-4.800000e+00,
-5.400000e+00,
-5.400000e+00,
-4.800000e+00,
-5.400000e+00,
-4.600000e+00,
-4.800000e+00,
-5.400000e+00,
-4.800000e+00,
-5.400000e+00,
-4.800000e+00,
-5.400000e+00,
-5.400000e+00,
-4.600000e+00,
-4.800000e+00,
-5.400000e+00,
-5.400000e+00,
-4.600000e+00,
-5.400000e+00,
-4.600000e+00,
-5.400000e+00,
-4.600000e+00,
-5.400000e+00,
-4.600000e+00,
-5.400000e+00,
-4.600000e+00,
-4.600000e+00,
-5.400000e+00,
-4.600000e+00,
-5.400000e+00,
-4.600000e+00,
-5.400000e+00,
-4.600000e+00,
-5.400000e+00,
-5.400000e+00,
-4.600000e+00,
-5.400000e+00,
-4.600000e+00,
-4.600000e+00,
-5.400000e+00,
-5.400000e+00,
-4.400000e+00,
-4.600000e+00,
-5.600000e+00,
-4.600000e+00,
-5.600000e+00,
