Session 2/Waveforms/WaveForms/2/VS_IN.csv

CH1,Start,Increment,
Volt,-1.140000e-04,2.000000e-07
-3.600000e+00,
-4.400000e+00,
-3.600000e+00,
-4.400000e+00,
-3.600000e+00,
-4.400000e+00,
-3.600000e+00,
-4.400000e+00,
-3.600000e+00,
-4.400000e+00,
-3.600000e+00,
-4.400000e+00,
-3.600000e+00,
-4.400000e+00,
-3.600000e+00,
-4.400000e+00,
-3.600000e+00,
-4.400000e+00,
-3.600000e+00,
-4.400000e+00,
-3.600000e+00,
-4.400000e+00,
-3.600000e+00,
-4.400000e+00,
-3.600000e+00,
-4.400000e+00,
-3.600000e+00,
-4.400000e+00,
-3.600000e+00,
-4.400000e+00,
-3.600000e+00,
-4.400000e+00,
-3.600000e+00,
-4.400000e+00,
-3.600000e+00,
-4.400000e+00,
-3.600000e+00,
-4.400000e+00,
-3.600000e+00,
-4.400000e+00,
-3.600000e+00,
-4.400000e+00,
-3.600000e+00,
-4.400000e+00,
-3.600000e+00,
-4.400000e+00,
-3.600000e+00,
-4.400000e+00,
-3.600000e+00,
-4.400000e+00,
-3.600000e+00,
-4.400000e+00,
-3.600000e+00,
-4.400000e+00,
-3.600000e+00,
-4.400000e+00,
-3.600000e+00,
-4.400000e+00,
-3.600000e+00,
-4.400000e+00,
-4.400000e+00,
-3.200000e+00,
-2.000000e+00,
-6.000000e+00,
-4.800000e+00,
-2.800000e+00,
-4.400000e+00,
-2.000000e+00,
-2.800000e+00,
-1.320000e+01,
2.000000e+00,
-9.600000e+00,
-2.800000e+00,
-4.400000e+00,
-3.200000e+00,
-4.400000e+00,
-4.400000e+00,
-3.200000e+00,
-3.200000e+00,
-4.400000e+00,
-4.000000e+00,
-3.200000e+00,
-4.000000e+00,
-3.200000e+00,
-3.200000e+00,
-4.400000e+00,
-4.400000e+00,
-3.200000e+00,
-3.200000e+00,
-4.400000e+00,
-4.000000e+00,
-3.200000e+00,
-3.600000e+00,
-4.400000e+00,
-4.400000e+00,
-3.200000e+00,
-3.200000e+00,
-4.400000e+00,
-3.200000e+00,
-4.400000e+00,
-3.600000e+00,
-4.400000e+00,
-4.400000e+00,
-3.200000e+00,
-4.400000e+00,
-3.200000e+00,
-4.400000e+00,
-3.200000e+00,
-3.600000e+00,
-4.400000e+00,
-4.400000e+00,
-3.200000e+00,
-3.600000e+00,
-4.400000e+00,
-3.600000e+00,
-4.400000e+00,
-4.400000e+00,
-3.200000e+00,
-3.600000e+00,
-4.400000e+00,
-3.600000e+00,
-4.400000e+00,
-3.600000e+00,
-4.400000e+00,
-3.600000e+00,
-4.400000e+00,
-3.600000e+00,
-4.400000e+00,
-3.600000e+00,
-4.400000e+00,
-3.600000e+00,
-4.400000e+00,
-3.600000e+00,
-4.400000e+00,
-3.600000e+00,
-4.400000e+00,
-3.600000e+00,
-4.400000e+00,
-3.600000e+00,
-4.400000e+00,
-3.600000e+00,
-4.400000e+00,
-3.600000e+00,
-4.400000e+00,
-3.600000e+00,
-4.400000e+00,
-4.400000e+00,
-3.200000e+00,
-3.600000e+00,
-4.400000e+00,
-3.600000e+00,
-4.400000e+00,
-3.600000e+00,
-4.400000e+00,
-3.600000e+00,
-4.400000e+00,
-3.600000e+00,
-4.400000e+00,
-4.400000e+00,
-3.200000e+00,
-4.400000e+00,
-3.200000e+00,
-3.600000e+00,
-4.400000e+00,
-4.800000e+00,
-2.800000e+00,
-5.600000e+00,
-2.800000e+00,
-4.400000e+00,
-3.200000e+00,
-3.600000e+00,
-4.400000e+00,
-3.600000e+00,
-4.400000e+00,
-3.600000e+00,
-4.400000e+00,
-3.600000e+00,
-4.400000e+00,
-3.600000e+00,
-4.400000e+00,
-3.600000e+00,
-4.400000e+00,
-3.600000e+00,
-4.400000e+00,
-3.600000e+00,
-4.400000e+00,
-4.400000e+00,
-3.600000e+00,
-3.600000e+00,
-4.400000e+00,
-3.600000e+00,
-4.400000e+00,
-3.600000e+00,
-4.400000e+00,
-4.400000e+00,
-3.600000e+00,
-3.600000e+00,
-4.400000e+00,
-3.600000e+00,
-4.400000e+00,
-3.600000e+00,
-4.400000e+00,
-3.600000e+00,
-4.400000e+00,
-3.600000e+00,
-4.400000e+00,
-3.600000e+00,
-4.400000e+00,
-4.400000e+00,
-3.600000e+00,
-3.600000e+00,
-4.400000e+00,
-3.600000e+00,
-4.400000e+00,
-3.600000e+00,
-4.400000e+00,
-3.600000e+00,
-4.400000e+00,
-3.600000e+00,
-4.400000e+00,
-3.600000e+00,
-4.400000e+00,
-3.600000e+00,
-4.400000e+00,
-3.600000e+00,
-4.400000e+00,
-3.600000e+00,
-4.400000e+00,
-3.600000e+00,
-4.400000e+00,
-3.600000e+00,
-4.400000e+00,
-3.600000e+00,
-4.400000e+00,
-3.600000e+00,
-4.400000e+00,
-3.600000e+00,
-4.400000e+00,
-4.400000e+00,
-3.600000e+00,
-3.600000e+00,
-4.400000e+00,
-3.600000e+00,
-4.400000e+00,
-3.600000e+00,
-4.400000e+00,
-3.600000e+00,
-4.400000e+00,
-3.600000e+00,
-4.400000e+00,
-3.600000e+00,
-4.400000e+00,
-3.600000e+00,
-4.400000e+00,
-3.600000e+00,
-4.400000e+00,
-3.600000e+00,
-4.400000e+00,
-3.600000e+00,
-4.400000e+00,
-3.600000e+00,
-4.400000e+00,
-3.600000e+00,
-4.400000e+00,
-3.600000e+00,
-4.400000e+00,
-3.600000e+00,
-4.400000e+00,
-3.600000e+00,
-4.400000e+00,
-3.600000e+00,
-4.400000e+00,
-3.600000e+00,
-4.400000e+00,
-3.600000e+00,
-4.400000e+00,
-3.600000e+00,
-4.400000e+00,
-3.600000e+00,
-4.400000e+00,
-3.600000e+00,
-4.400000e+00,
-3.600000e+00,
-4.400000e+00,
-3.600000e+00,
-4.400000e+00,
-3.600000e+00,
-4.400000e+00,
-3.600000e+00,
-4.400000e+00,
-3.600000e+00,
-4.400000e+00,
-3.600000e+00,
-4.400000e+00,
-3.600000e+00,
-4.400000e+00,
-4.400000e+00,
-3.600000e+00,
-3.600000e+00,
-4.400000e+00,
-3.600000e+00,
-4.400000e+00,
-3.600000e+00,
-4.400000e+00,
-3.600000e+00,
-4.400000e+00,
-3.600000e+00,
-4.400000e+00,
-3.600000e+00,
-4.400000e+00,
-3.600000e+00,
-4.400000e+00,
-4.400000e+00,
-3.600000e+00,
-3.200000e+00,
-4.800000e+00,
-2.800000e+00,
-4.800000e+00,
-5.200000e+00,
-2.400000e+00,
-4.800000e+00,
-2.800000e+00,
-3.200000e+00,
-4.800000e+00,
-3.600000e+00,
-4.400000e+00,
-3.600000e+00,
-4.400000e+00,
-3.600000e+00,
-4.400000e+00,
-4.400000e+00,
-3.600000e+00,
-3.600000e+00,
-4.400000e+00,
-3.600000e+00,
-4.400000e+00,
-3.600000e+00,
-4.400000e+00,
-3.600000e+00,
-4.400000e+00,
-3.600000e+00,
-4.400000e+00,
-3.600000e+00,
-4.400000e+00,
-3.600000e+00,
-4.400000e+00,
-3.600000e+00,
-4.400000e+00,
-3.600000e+00,
-4.400000e+00,
-3.600000e+00,
-4.400000e+00,
-3.600000e+00,
-4.400000e+00,
-3.600000e+00,
-4.400000e+00,
-3.600000e+00,
-4.400000e+00,
-3.600000e+00,
-4.400000e+00,
-4.400000e+00,
-3.600000e+00,
-3.600000e+00,
-4.400000e+00,
-3.600000e+00,
-4.400000e+00,
-3.600000e+00,
-4.400000e+00,
-4.400000e+00,
-3.600000e+00,
-3.600000e+00,
-4.400000e+00,
-3.600000e+00,
-4.400000e+00,
-3.600000e+00,
-4.400000e+00,
-3.600000e+00,
-4.400000e+00,
-3.600000e+00,
-4.400000e+00,
-3.600000e+00,
-4.400000e+00,
-4.400000e+00,
-3.600000e+00,
-3.600000e+00,
-4.400000e+00,
-3.600000e+00,
-4.400000e+00,
-3.600000e+00,
-4.400000e+00,
-3.600000e+00,
-4.400000e+00,
-3.600000e+00,
-4.400000e+00,
-3.600000e+00,
-4.400000e+00,
-3.600000e+00,
-4.400000e+00,
-3.600000e+00,
-4.400000e+00,
-3.600000e+00,
-4.400000e+00,
-3.600000e+00,
-4.400000e+00,
-3.600000e+00,
-4.400000e+00,
-3.200000e+00,
-4.800000e+00,
-4.800000e+00,
-2.400000e+00,
-4.800000e+00,
-2.800000e+00,
-3.200000e+00,
-4.800000e+00,
-3.600000e+00,
-4.400000e+00,
-3.600000e+00,
-4.400000e+00,
-3.600000e+00,
-4.400000e+00,
-3.600000e+00,
-4.400000e+00,
-3.600000e+00,
-4.400000e+00,
-3.600000e+00,
-4.400000e+00,
-3.600000e+00,
-4.400000e+00,
-3.600000e+00,
-4.400000e+00,
-3.600000e+00,
-4.400000e+00,
-3.600000e+00,
-4.400000e+00,
-3.600000e+00,
-4.400000e+00,
-3.600000e+00,
-4.400000e+00,
-3.600000e+00,
-4.400000e+00,
-3.600000e+00,
-4.400000e+00,
-4.400000e+00,
-3.600000e+00,
-3.600000e+00,
-4.400000e+00,
-3.600000e+00,
-4.400000e+00,
-3.600000e+00,
-4.400000e+00,
-3.600000e+00,
-4.400000e+00,
-3.600000e+00,
-4.400000e+00,
-3.600000e+00,
-4.400000e+00,
-3.600000e+00,
-4.400000e+00,
-3.600000e+00,
-4.400000e+00,
-3.600000e+00,
-4.400000e+00,
-3.600000e+00,
-4.400000e+00,
-3.600000e+00,
-4.400000e+00,
-4.400000e+00,
-3.200000e+00,
-3.600000e+00,
-4.400000e+00,
-3.600000e+00,
-4.400000e+00,
-3.600000e+00,
-4.400000e+00,
-3.600000e+00,
-4.400000e+00,
-3.600000e+00,
-4.400000e+00,
-3.600000e+00,
-4.400000e+00,
-4.400000e+00,
-3.600000e+00,
-3.600000e+00,
-4.400000e+00,
-4.400000e+00,
-3.600000e+00,
-3.600000e+00,
-4.400000e+00,
-3.600000e+00,
-4.400000e+00,
-3.600000e+00,
-4.400000e+00,
-3.600000e+00,
-4.400000e+00,
-3.600000e+00,
-4.400000e+00,
-3.600000e+00,
-4.400000e+00,
-3.600000e+00,
-4.400000e+00,
-3.600000e+00,
-4.400000e+00,
-3.600000e+00,
-4.400000e+00,
-3.600000e+00,
-4.400000e+00,
-3.600000e+00,
-4.400000e+00,
-3.600000e+00,
-4.400000e+00,
-3.600000e+00,
-4.400000e+00,
-3.600000e+00,
-4.400000e+00,
-3.600000e+00,
-4.400000e+00,
-3.600000e+00,
-4.400000e+00,
-3.600000e+00,
-4.400000e+00,
-3.600000e+00,
-4.400000e+00,
-3.600000e+00,
-4.400000e+00,
-3.600000e+00,
-4.400000e+00,
-4.400000e+00,
-3.200000e+00,
-3.600000e+00,
-4.400000e+00,
-3.600000e+00,
-4.400000e+00,
-3.600000e+00,
-4.400000e+00,
-3.600000e+00,
-4.400000e+00,
-3.600000e+00,
-4.400000e+00,
-3.600000e+00,
-4.400000e+00,
-3.600000e+00,
-4.400000e+00,
-3.600000e+00,
-4.400000e+00,
-3.600000e+00,
-4.400000e+00,
-3.600000e+00,
-4.400000e+00,
-3.600000e+00,
-4.400000e+00,
-4.400000e+00,
-3.600000e+00,
-3.600000e+00,
-4.400000e+00,
-3.600000e+00,
-4.400000e+00,
-3.600000e+00,
-4.400000e+00,
-3.600000e+00,
-4.400000e+00,
-4.400000e+00,
-3.200000e+00,
-2.000000e+00,
-5.600000e+00,
-3.200000e+00,
-4.800000e+00,
-4.400000e+00,
-2.400000e+00,
-2.800000e+00,
-1.280000e+01,
1.600000e+00,
-9.600000e+00,
-3.200000e+00,
-4.400000e+00,
-3.200000e+00,
-4.400000e+00,
-4.000000e+00,
-3.200000e+00,
-4.000000e+00,
-3.200000e+00,
-3.200000e+00,
-4.400000e+00,
-3.200000e+00,
-4.400000e+00,
-4.400000e+00,
-3.200000e+00,
-3.200000e+00,
-4.000000e+00,
-4.400000e+00,
-3.200000e+00,
-4.400000e+00,
-3.200000e+00,
-3.200000e+00,
-4.400000e+00,
-3.200000e+00,
-4.400000e+00,
-4.000000e+00,
-3.200000e+00,
-4.400000e+00,
-3.200000e+00,
-3.600000e+00,
-4.400000e+00,
-3.200000e+00,
-4.400000e+00,
-3.600000e+00,
-4.000000e+00,
-3.600000e+00,
-4.400000e+00,
-3.600000e+00,
-4.400000e+00,
-3.600000e+00,
-4.400000e+00,
-3.600000e+00,
-4.400000e+00,
-3.600000e+00,
-4.400000e+00,
-3.200000e+00,
-4.400000e+00,
-3.600000e+00,
-4.400000e+00,
-3.600000e+00,
-4.400000e+00,
-3.200000e+00,
-4.400000e+00,
-3.600000e+00,
-4.400000e+00,
-3.600000e+00,
-4.400000e+00,
-3.600000e+00,
-4.400000e+00,
-4.400000e+00,
-3.200000e+00,
-3.600000e+00,
-4.400000e+00,
-3.600000e+00,
-4.400000e+00,
-3.600000e+00,
-4.400000e+00,
-3.600000e+00,
-4.400000e+00,
-3.600000e+00,
-4.400000e+00,
-3.600000e+00,
-4.400000e+00,
-3.600000e+00,
-4.400000e+00,
-3.600000e+00,
-4.400000e+00,
-3.600000e+00,
-4.400000e+00,
-3.600000e+00,
-4.400000e+00,
-3.600000e+00,
-4.400000e+00,
-3.600000e+00,
-4.400000e+00,
-3.600000e+00,
-4.400000e+00,
-4.400000e+00,
-3.200000e+00,
-4.800000e+00,
-3.200000e+00,
-4.400000e+00,
-3.200000e+00,
-4.800000e+00,
-2.800000e+00,
-5.200000e+00,
-2.800000e+00,
-3.200000e+00,
-4.800000e+00,
-3.600000e+00,
-4.400000e+00,
-3.600000e+00,
-4.400000e+00,
-3.600000e+00,
-4.400000e+00,
-3.600000e+00,
-4.400000e+00,
-3.600000e+00,
-4.400000e+00,
-3.600000e+00,
-4.400000e+00,
-3.600000e+00,
-4.400000e+00,
-3.600000e+00,
-4.400000e+00,
-3.600000e+00,
-4.400000e+00,
-3.600000e+00,
-4.400000e+00,
-3.600000e+00,
-4.400000e+00,
-3.600000e+00,
-4.400000e+00,
-3.600000e+00,
-4.400000e+00,
-3.600000e+00,
-4.400000e+00,
-3.600000e+00,
-4.400000e+00,
-3.600000e+00,
-4.400000e+00,
-3.600000e+00,
-4.400000e+00,
-4.400000e+00,
-3.600000e+00,
-3.600000e+00,
-4.400000e+00,
-3.600000e+00,
-4.400000e+00,
-3.600000e+00,
-4.400000e+00,
-3.600000e+00,
-4.400000e+00,
-4.400000e+00,
-3.600000e+00,
-3.600000e+00,
-4.400000e+00,
-3.600000e+00,
-4.400000e+00,
-3.600000e+00,
-4.400000e+00,
-3.600000e+00,
-4.400000e+00,
-3.600000e+00,
-4.400000e+00,
-3.600000e+00,
-4.400000e+00,
-3.600000e+00,
-4.400000e+00,
-3.600000e+00,
-4.400000e+00,
-3.600000e+00,
-4.400000e+00,
-3.600000e+00,
-4.400000e+00,
-3.600000e+00,
-4.400000e+00,
-3.600000e+00,
-4.400000e+00,
-3.600000e+00,
-4.400000e+00,
-3.600000e+00,
-4.400000e+00,
-3.600000e+00,
-4.400000e+00,
-3.600000e+00,
-4.400000e+00,
-3.600000e+00,
-4.400000e+00,
-3.600000e+00,
-4.400000e+00,
-4.400000e+00,
-3.600000e+00,
-3.600000e+00,
-4.400000e+00,
-3.600000e+00,
-4.400000e+00,
-3.600000e+00,
-4.400000e+00,
-3.600000e+00,
-4.400000e+00,
-3.600000e+00,
-4.400000e+00,
-4.400000e+00,
-3.600000e+00,
-3.600000e+00,
-4.400000e+00,
-3.600000e+00,
-4.400000e+00,
-3.600000e+00,
-4.400000e+00,
-3.600000e+00,
-4.400000e+00,
-3.600000e+00,
-4.400000e+00,
-3.600000e+00,
-4.400000e+00,
-3.600000e+00,
-4.400000e+00,
-3.600000e+00,
-4.400000e+00,
-3.600000e+00,
-4.400000e+00,
-3.600000e+00,
-4.400000e+00,
-3.600000e+00,
-4.400000e+00,
-3.600000e+00,
-4.400000e+00,
-3.600000e+00,
-4.400000e+00,
-3.600000e+00,
-4.400000e+00,
-3.600000e+00,
-4.400000e+00,
-3.600000e+00,
-4.400000e+00,
-3.600000e+00,
-4.400000e+00,
-3.600000e+00,
-4.400000e+00,
-3.600000e+00,
-4.400000e+00,
-3.600000e+00,
-4.400000e+00,
-3.600000e+00,
-4.400000e+00,
-3.600000e+00,
-4.400000e+00,
-3.600000e+00,
-4.400000e+00,
-3.600000e+00,
-4.400000e+00,
-4.400000e+00,
-3.200000e+00,
-2.800000e+00,
-4.800000e+00,
-5.600000e+00,
-2.400000e+00,
-4.800000e+00,
-2.800000e+00,
-3.200000e+00,
-4.800000e+00,
-3.600000e+00,
-4.400000e+00,
-3.600000e+00,
-4.400000e+00,
-3.600000e+00,
-4.400000e+00,
-3.600000e+00,
-4.400000e+00,
-3.600000e+00,
-4.400000e+00,
-3.600000e+00,
-4.400000e+00,
-3.600000e+00,
-4.400000e+00,
-3.600000e+00,
-4.400000e+00,
-3.600000e+00,
-4.400000e+00,
-3.600000e+00,
-4.400000e+00,
-3.600000e+00,
-4.400000e+00,
-3.600000e+00,
-4.400000e+00,
-3.600000e+00,
-4.400000e+00,
-3.600000e+00,
-4.400000e+00,
-3.600000e+00,
-4.400000e+00,
-3.600000e+00,
-4.400000e+00,
-3.600000e+00,
-4.400000e+00,
-3.600000e+00,
-4.400000e+00,
-3.600000e+00,
-4.400000e+00,
-3.600000e+00,
-4.400000e+00,
-3.600000e+00,
-4.400000e+00,
-3.600000e+00,
-4.400000e+00,
-3.600000e+00,
-4.400000e+00,
-3.600000e+00,
-4.400000e+00,
-3.600000e+00,
-4.400000e+00,
-3.600000e+00,
-4.400000e+00,
-3.600000e+00,
-4.400000e+00,
-3.600000e+00,
-4.400000e+00,
-3.600000e+00,
-4.400000e+00,
-3.600000e+00,
-4.400000e+00,
-3.600000e+00,
-4.400000e+00,
-3.600000e+00,
-4.400000e+00,
-3.600000e+00,
-4.400000e+00,
-3.600000e+00,
-4.400000e+00,
-3.600000e+00,
-4.400000e+00,
-4.400000e+00,
-3.600000e+00,
-3.600000e+00,
-4.400000e+00,
-3.600000e+00,
-4.400000e+00,
-3.600000e+00,
-4.400000e+00,
-3.600000e+00,
-4.400000e+00,
-4.400000e+00,
-3.200000e+00,
-3.200000e+00,
-4.400000e+00,
-4.800000e+00,
-2.400000e+00,
-4.800000e+00,
-2.800000e+00,
-3.200000e+00,
-4.400000e+00,
-3.600000e+00,
-4.400000e+00,
-3.600000e+00,
-4.400000e+00,
-3.600000e+00,
-4.400000e+00,
-3.600000e+00,
-4.400000e+00,
-4.400000e+00,
-3.600000e+00,
-3.600000e+00,
-4.400000e+00,
-3.600000e+00,
-4.400000e+00,
-3.600000e+00,
-4.400000e+00,
-3.600000e+00,
-4.400000e+00,
-3.600000e+00,
-4.400000e+00,
-3.600000e+00,
-4.400000e+00,
-3.600000e+00,
-4.400000e+00,
-3.600000e+00,
-4.400000e+00,
-3.600000e+00,
-4.400000e+00,
-3.600000e+00,
-4.400000e+00,
-3.600000e+00,
-4.400000e+00,
-3.600000e+00,
-4.400000e+00,
-3.600000e+00,
-4.400000e+00,
-3.600000e+00,
-4.400000e+00,
-4.400000e+00,
-3.600000e+00,
-3.600000e+00,
-4.400000e+00,
-3.600000e+00,
-4.400000e+00,
-3.600000e+00,
-4.400000e+00,
-3.600000e+00,
-4.400000e+00,
-3.600000e+00,
-4.400000e+00,
-3.600000e+00,
-4.400000e+00,
-3.600000e+00,
-4.400000e+00,
-3.600000e+00,
-4.400000e+00,
-3.600000e+00,
-4.400000e+00,
-3.600000e+00,
-4.400000e+00,
-3.600000e+00,
-4.400000e+00,
-3.600000e+00,
-4.400000e+00,
-3.600000e+00,
-4.400000e+00,
-3.600000e+00,
-4.400000e+00,
-3.600000e+00,
-4.400000e+00,
-3.600000e+00,
-4.400000e+00,
-3.600000e+00,
-4.400000e+00,
-3.600000e+00,
-4.400000e+00,
-3.600000e+00,
-4.400000e+00,
-3.600000e+00,
-4.400000e+00,
-3.600000e+00,
-4.400000e+00,
-3.600000e+00,
-4.400000e+00,
-3.600000e+00,
-4.400000e+00,
-3.600000e+00,
-4.400000e+00,
-3.600000e+00,
-4.400000e+00,
-3.600000e+00,
-4.400000e+00,
-3.600000e+00,
-4.400000e+00,
-3.600000e+00,
-4.400000e+00,
-3.600000e+00,
-4.400000e+00,
-3.600000e+00,
-4.400000e+00,
-3.600000e+00,
-4.400000e+00,
-3.600000e+00,
-4.400000e+00,
-3.600000e+00,
-4.400000e+00,
-3.600000e+00,
-4.400000e+00,
-3.600000e+00,
-4.400000e+00,
-3.600000e+00,
-4.400000e+00,
-3.600000e+00,
-4.400000e+00,
-3.600000e+00,
-4.400000e+00,
-3.600000e+00,
-4.400000e+00,
-3.600000e+00,
-4.400000e+00,
-3.600000e+00,
-4.400000e+00,
-3.600000e+00,
-4.400000e+00,
-3.600000e+00,
-4.400000e+00,
-3.600000e+00,
-4.400000e+00,
-3.600000e+00,
-4.400000e+00,
-3.600000e+00,
-4.400000e+00,
-3.600000e+00,
-4.400000e+00,
-3.600000e+00,
-4.400000e+00,
-3.600000e+00,
-4.400000e+00,
-3.600000e+00,
-4.400000e+00,
-3.600000e+00,
-4.400000e+00,
-3.600000e+00,
-4.400000e+00,
-3.600000e+00,
-4.400000e+00,
-4.400000e+00,
-2.800000e+00,
-2.000000e+00,
-5.600000e+00,
-4.800000e+00,
-2.800000e+00,
-4.400000e+00,
-2.400000e+00,
-2.800000e+00,
-1.280000e+01,
1.600000e+00,
-1.000000e+01,
-3.200000e+00,
-4.400000e+00,
-4.400000e+00,
-3.200000e+00,
-4.400000e+00,
-3.200000e+00,
-4.400000e+00,
-3.200000e+00,
-3.600000e+00,
-4.000000e+00,
-4.400000e+00,
-3.200000e+00,
-3.600000e+00,
-4.400000e+00,
-3.600000e+00,
-4.400000e+00,
-3.600000e+00,
-4.400000e+00,
-4.400000e+00,
-3.200000e+00,
-4.400000e+00,
-3.200000e+00,
-4.400000e+00,
-3.200000e+00,
-3.600000e+00,
-4.400000e+00,
-4.400000e+00,
-3.200000e+00,
-3.600000e+00,
-4.400000e+00,
-3.600000e+00,
-4.400000e+00,
-3.600000e+00,
-4.400000e+00,
-3.600000e+00,
-4.400000e+00,
-3.600000e+00,
-4.400000e+00,
-3.600000e+00,
-4.400000e+00,
-3.600000e+00,
-4.400000e+00,
-3.600000e+00,
-4.400000e+00,
-3.600000e+00,
-4.400000e+00,
-3.600000e+00,
-4.400000e+00,
-4.400000e+00,
-3.600000e+00,
-3.600000e+00,
-4.400000e+00,
-3.600000e+00,
-4.400000e+00,
-3.600000e+00,
-4.400000e+00,
-3.600000e+00,
-4.400000e+00,
-3.600000e+00,
-4.400000e+00,
-3.600000e+00,
-4.400000e+00,
-3.600000e+00,
-4.400000e+00,
-3.600000e+00,
-4.400000e+00,
-3.600000e+00,
-4.400000e+00,
-3.600000e+00,
-4.400000e+00,
-3.600000e+00,
-4.400000e+00,
-3.600000e+00,
-4.400000e+00,
-3.600000e+00,
-4.400000e+00,
-3.600000e+00,
-4.400000e+00,
-3.600000e+00,
-4.400000e+00,
-3.600000e+00,
-4.400000e+00,
-3.600000e+00,
-4.400000e+00,
-3.600000e+00,
-4.400000e+00,
-4.400000e+00,
-3.200000e+00,
-3.200000e+00,
-4.800000e+00,
-3.600000e+00,
-4.400000e+00,
-4.800000e+00,
-2.800000e+00,
-5.200000e+00,
-2.800000e+00,
-4.800000e+00,
-3.200000e+00,
-3.600000e+00,
-4.400000e+00,
-3.600000e+00,
-4.400000e+00,
-3.600000e+00,
-4.400000e+00,
-3.600000e+00,
-4.400000e+00,
-3.600000e+00,
-4.400000e+00,
-3.600000e+00,
-4.400000e+00,
-4.400000e+00,
-3.600000e+00,
-3.600000e+00,
-4.400000e+00,
-3.600000e+00,
-4.400000e+00,
-3.600000e+00,
-4.400000e+00,
-3.600000e+00,
-4.400000e+00,
-3.600000e+00,
-4.400000e+00,
-3.600000e+00,
-4.400000e+00,
-3.600000e+00,
-4.400000e+00,
-3.600000e+00,
-4.400000e+00,
