Session 2/Waveforms/WaveForms/motor/moter_20.csv

CH1,Start,Increment,
Volt,-1.080000e-04,2.000000e-07
-6.400000e+01,
-6.160000e+01,
-6.400000e+01,
-6.160000e+01,
-6.400000e+01,
-6.160000e+01,
-6.400000e+01,
-6.160000e+01,
-6.400000e+01,
-6.160000e+01,
-6.160000e+01,
-6.400000e+01,
-6.400000e+01,
-6.160000e+01,
-6.160000e+01,
-6.400000e+01,
-6.400000e+01,
-6.160000e+01,
-6.400000e+01,
-6.160000e+01,
-6.400000e+01,
-6.160000e+01,
-6.400000e+01,
-6.160000e+01,
-6.400000e+01,
-6.160000e+01,
-6.160000e+01,
-6.400000e+01,
-6.400000e+01,
-6.160000e+01,
-6.160000e+01,
-6.400000e+01,
-6.400000e+01,
-6.160000e+01,
-6.400000e+01,
-6.160000e+01,
-6.160000e+01,
-6.480000e+01,
-6.480000e+01,
-2.400000e+01,
-2.160000e+01,
3.120000e+01,
9.600000e+00,
1.280000e+01,
1.120000e+01,
9.600000e+00,
1.120000e+01,
9.600000e+00,
1.120000e+01,
9.600000e+00,
9.600000e+00,
1.120000e+01,
9.600000e+00,
1.120000e+01,
9.600000e+00,
1.120000e+01,
1.120000e+01,
9.600000e+00,
9.600000e+00,
1.120000e+01,
9.600000e+00,
1.120000e+01,
9.600000e+00,
1.120000e+01,
1.120000e+01,
9.600000e+00,
9.600000e+00,
1.120000e+01,
1.120000e+01,
9.600000e+00,
1.120000e+01,
9.600000e+00,
9.600000e+00,
1.120000e+01,
9.600000e+00,
1.120000e+01,
1.120000e+01,
9.600000e+00,
9.600000e+00,
1.120000e+01,
1.120000e+01,
9.600000e+00,
9.600000e+00,
1.120000e+01,
9.600000e+00,
1.120000e+01,
9.600000e+00,
1.120000e+01,
9.600000e+00,
1.120000e+01,
9.600000e+00,
1.120000e+01,
9.600000e+00,
1.120000e+01,
9.600000e+00,
1.120000e+01,
9.600000e+00,
1.120000e+01,
9.600000e+00,
1.120000e+01,
9.600000e+00,
1.120000e+01,
9.600000e+00,
1.120000e+01,
1.120000e+01,
9.600000e+00,
9.600000e+00,
1.120000e+01,
1.120000e+01,
9.600000e+00,
9.600000e+00,
1.120000e+01,
9.600000e+00,
1.120000e+01,
9.600000e+00,
1.120000e+01,
9.600000e+00,
1.120000e+01,
9.600000e+00,
1.120000e+01,
9.600000e+00,
1.120000e+01,
9.600000e+00,
1.120000e+01,
9.600000e+00,
1.120000e+01,
9.600000e+00,
1.120000e+01,
9.600000e+00,
1.120000e+01,
8.800000e+00,
1.120000e+01,
9.600000e+00,
1.120000e+01,
1.120000e+01,
-9.600000e+00,
-9.600000e+00,
-7.040000e+01,
-7.120000e+01,
-6.240000e+01,
-6.400000e+01,
-6.240000e+01,
-6.400000e+01,
-6.240000e+01,
-6.400000e+01,
-6.240000e+01,
-6.400000e+01,
-6.160000e+01,
-6.400000e+01,
-6.240000e+01,
-6.400000e+01,
-6.160000e+01,
-6.400000e+01,
-6.160000e+01,
-6.400000e+01,
-6.160000e+01,
-6.400000e+01,
-6.160000e+01,
-6.400000e+01,
-6.160000e+01,
-6.160000e+01,
-6.400000e+01,
-6.400000e+01,
-6.160000e+01,
-6.400000e+01,
-6.160000e+01,
-6.400000e+01,
-6.160000e+01,
-6.400000e+01,
-6.160000e+01,
-6.400000e+01,
-6.160000e+01,
-6.400000e+01,
-6.160000e+01,
-6.400000e+01,
-6.160000e+01,
-6.400000e+01,
-6.160000e+01,
-6.400000e+01,
-6.160000e+01,
-6.400000e+01,
-6.160000e+01,
-6.400000e+01,
-6.160000e+01,
-6.400000e+01,
-6.160000e+01,
-6.400000e+01,
-6.160000e+01,
-6.400000e+01,
-6.160000e+01,
-6.400000e+01,
-6.160000e+01,
-6.400000e+01,
-6.160000e+01,
-6.400000e+01,
-6.160000e+01,
-6.400000e+01,
-6.160000e+01,
-6.400000e+01,
-6.160000e+01,
-6.400000e+01,
-6.160000e+01,
-6.400000e+01,
-6.160000e+01,
-6.400000e+01,
-6.160000e+01,
-6.400000e+01,
-6.160000e+01,
-6.400000e+01,
-6.160000e+01,
-6.400000e+01,
-6.160000e+01,
-6.400000e+01,
-6.160000e+01,
-6.400000e+01,
-6.160000e+01,
-6.400000e+01,
-6.160000e+01,
-6.400000e+01,
-6.160000e+01,
-6.400000e+01,
-6.160000e+01,
-6.400000e+01,
-6.160000e+01,
-6.400000e+01,
-6.160000e+01,
-6.400000e+01,
-6.160000e+01,
-6.400000e+01,
-6.160000e+01,
-6.400000e+01,
-6.160000e+01,
-6.400000e+01,
-6.160000e+01,
-6.400000e+01,
-6.160000e+01,
-6.400000e+01,
-6.160000e+01,
-6.400000e+01,
-6.160000e+01,
-6.400000e+01,
-6.160000e+01,
-6.400000e+01,
-6.160000e+01,
-6.400000e+01,
-6.160000e+01,
-6.400000e+01,
-6.160000e+01,
-6.400000e+01,
-6.160000e+01,
-6.400000e+01,
-6.160000e+01,
-6.400000e+01,
-6.160000e+01,
-6.400000e+01,
-6.160000e+01,
-6.160000e+01,
-6.400000e+01,
-6.400000e+01,
-6.160000e+01,
-6.400000e+01,
-6.160000e+01,
-6.400000e+01,
-6.160000e+01,
-6.400000e+01,
-6.160000e+01,
-6.400000e+01,
-6.160000e+01,
-6.400000e+01,
-6.160000e+01,
-6.400000e+01,
-6.160000e+01,
-6.400000e+01,
-6.160000e+01,
-6.400000e+01,
-6.160000e+01,
-6.400000e+01,
-6.160000e+01,
-6.400000e+01,
-6.160000e+01,
-6.400000e+01,
-6.160000e+01,
-6.400000e+01,
-6.160000e+01,
-6.400000e+01,
-6.160000e+01,
-6.400000e+01,
-6.160000e+01,
-6.160000e+01,
-6.560000e+01,
-6.400000e+01,
-6.080000e+01,
-6.400000e+01,
-6.160000e+01,
-6.400000e+01,
-6.160000e+01,
-6.400000e+01,
-6.160000e+01,
-6.400000e+01,
-6.160000e+01,
-6.400000e+01,
-6.160000e+01,
-6.400000e+01,
-6.160000e+01,
-6.400000e+01,
-6.160000e+01,
-6.400000e+01,
-6.160000e+01,
-6.400000e+01,
-6.160000e+01,
-6.160000e+01,
-6.400000e+01,
-6.400000e+01,
-6.160000e+01,
-6.400000e+01,
-6.160000e+01,
-6.400000e+01,
-6.160000e+01,
-6.400000e+01,
-6.160000e+01,
-6.400000e+01,
-6.160000e+01,
-6.400000e+01,
-6.160000e+01,
-6.160000e+01,
-6.400000e+01,
-6.400000e+01,
-6.160000e+01,
-6.400000e+01,
-6.160000e+01,
-6.400000e+01,
-6.160000e+01,
-6.400000e+01,
-6.160000e+01,
-6.400000e+01,
-6.160000e+01,
-6.400000e+01,
-6.160000e+01,
-6.400000e+01,
-6.160000e+01,
-6.400000e+01,
-6.160000e+01,
-6.400000e+01,
-6.160000e+01,
-6.400000e+01,
-6.160000e+01,
-6.160000e+01,
-6.400000e+01,
-6.400000e+01,
-6.160000e+01,
-6.400000e+01,
-6.160000e+01,
-6.400000e+01,
-6.160000e+01,
-6.400000e+01,
-6.160000e+01,
-6.400000e+01,
-6.160000e+01,
-6.400000e+01,
-6.160000e+01,
-6.400000e+01,
-6.160000e+01,
-6.400000e+01,
-6.160000e+01,
-6.400000e+01,
-6.160000e+01,
-6.400000e+01,
-6.160000e+01,
-6.400000e+01,
-6.160000e+01,
-6.160000e+01,
-6.400000e+01,
-6.400000e+01,
-6.160000e+01,
-6.400000e+01,
-6.160000e+01,
-6.400000e+01,
-6.160000e+01,
-6.160000e+01,
-6.400000e+01,
-6.400000e+01,
-6.160000e+01,
-6.400000e+01,
-6.160000e+01,
-6.160000e+01,
-6.400000e+01,
-6.400000e+01,
-6.160000e+01,
-6.400000e+01,
-6.160000e+01,
-6.400000e+01,
-6.160000e+01,
-6.400000e+01,
-6.160000e+01,
-6.400000e+01,
-6.160000e+01,
-6.400000e+01,
-6.160000e+01,
-6.400000e+01,
-6.160000e+01,
-6.400000e+01,
-6.160000e+01,
-6.160000e+01,
-6.400000e+01,
-6.400000e+01,
-6.160000e+01,
-6.400000e+01,
-6.160000e+01,
-6.400000e+01,
-6.160000e+01,
-6.400000e+01,
-6.160000e+01,
-6.160000e+01,
-6.400000e+01,
-6.400000e+01,
-6.160000e+01,
-6.400000e+01,
-6.160000e+01,
-6.400000e+01,
-6.160000e+01,
-6.400000e+01,
-6.160000e+01,
-6.160000e+01,
-6.400000e+01,
-6.400000e+01,
-6.160000e+01,
-6.400000e+01,
-6.160000e+01,
-6.400000e+01,
-6.160000e+01,
-6.400000e+01,
-6.160000e+01,
-6.400000e+01,
-6.160000e+01,
-6.400000e+01,
-6.160000e+01,
-6.160000e+01,
-6.400000e+01,
-6.400000e+01,
-6.160000e+01,
-6.160000e+01,
-6.400000e+01,
-6.400000e+01,
-6.160000e+01,
-6.400000e+01,
-6.160000e+01,
-6.400000e+01,
-6.160000e+01,
-6.400000e+01,
-6.160000e+01,
-6.400000e+01,
-6.160000e+01,
-6.400000e+01,
-6.160000e+01,
-6.160000e+01,
-6.400000e+01,
-6.160000e+01,
-6.400000e+01,
-6.400000e+01,
-6.160000e+01,
-6.160000e+01,
-6.400000e+01,
-6.160000e+01,
-6.400000e+01,
-6.400000e+01,
-6.160000e+01,
-6.400000e+01,
-6.160000e+01,
-6.160000e+01,
-6.400000e+01,
-6.400000e+01,
-6.160000e+01,
-6.160000e+01,
-6.400000e+01,
-6.160000e+01,
-6.400000e+01,
-6.160000e+01,
-6.400000e+01,
-6.400000e+01,
-6.160000e+01,
-6.160000e+01,
-6.400000e+01,
-6.400000e+01,
-6.160000e+01,
-6.160000e+01,
-6.400000e+01,
-6.160000e+01,
-6.400000e+01,
-6.160000e+01,
-6.400000e+01,
-6.400000e+01,
-6.160000e+01,
-6.160000e+01,
-6.400000e+01,
-6.160000e+01,
-6.400000e+01,
-6.400000e+01,
-6.160000e+01,
-6.160000e+01,
-6.400000e+01,
-6.160000e+01,
-6.400000e+01,
-6.160000e+01,
-6.400000e+01,
-6.160000e+01,
-6.400000e+01,
-6.400000e+01,
-6.160000e+01,
-6.400000e+01,
-6.160000e+01,
-6.160000e+01,
-6.400000e+01,
-6.160000e+01,
-6.400000e+01,
-6.160000e+01,
-6.400000e+01,
-6.160000e+01,
-6.400000e+01,
-6.160000e+01,
-6.400000e+01,
-6.160000e+01,
-6.400000e+01,
-6.160000e+01,
-6.400000e+01,
-6.400000e+01,
-6.160000e+01,
-6.160000e+01,
-6.400000e+01,
-6.400000e+01,
-6.160000e+01,
-6.160000e+01,
-6.400000e+01,
-6.400000e+01,
-6.160000e+01,
-6.400000e+01,
-6.160000e+01,
-6.160000e+01,
-6.480000e+01,
-6.480000e+01,
-2.320000e+01,
-2.080000e+01,
3.120000e+01,
9.600000e+00,
1.280000e+01,
1.120000e+01,
9.600000e+00,
1.200000e+01,
9.600000e+00,
1.120000e+01,
9.600000e+00,
1.120000e+01,
9.600000e+00,
1.120000e+01,
9.600000e+00,
1.120000e+01,
9.600000e+00,
9.600000e+00,
1.120000e+01,
1.120000e+01,
9.600000e+00,
9.600000e+00,
1.120000e+01,
9.600000e+00,
1.120000e+01,
9.600000e+00,
1.120000e+01,
9.600000e+00,
1.120000e+01,
9.600000e+00,
1.120000e+01,
1.120000e+01,
9.600000e+00,
1.120000e+01,
9.600000e+00,
1.120000e+01,
9.600000e+00,
1.120000e+01,
9.600000e+00,
9.600000e+00,
1.120000e+01,
9.600000e+00,
1.120000e+01,
9.600000e+00,
1.120000e+01,
9.600000e+00,
1.120000e+01,
1.120000e+01,
9.600000e+00,
1.120000e+01,
9.600000e+00,
9.600000e+00,
1.120000e+01,
9.600000e+00,
1.120000e+01,
1.120000e+01,
9.600000e+00,
9.600000e+00,
1.120000e+01,
9.600000e+00,
1.120000e+01,
9.600000e+00,
1.120000e+01,
1.120000e+01,
9.600000e+00,
9.600000e+00,
1.120000e+01,
9.600000e+00,
1.120000e+01,
9.600000e+00,
1.120000e+01,
9.600000e+00,
1.120000e+01,
1.120000e+01,
9.600000e+00,
9.600000e+00,
1.120000e+01,
9.600000e+00,
1.120000e+01,
9.600000e+00,
1.120000e+01,
9.600000e+00,
1.120000e+01,
9.600000e+00,
1.120000e+01,
9.600000e+00,
1.120000e+01,
9.600000e+00,
1.120000e+01,
1.120000e+01,
8.800000e+00,
1.120000e+01,
8.800000e+00,
9.600000e+00,
1.120000e+01,
1.120000e+01,
-9.600000e+00,
-1.040000e+01,
-7.040000e+01,
-7.120000e+01,
-6.160000e+01,
-6.400000e+01,
-6.240000e+01,
-6.240000e+01,
-6.400000e+01,
-6.400000e+01,
-6.240000e+01,
-6.400000e+01,
-6.160000e+01,
-6.160000e+01,
-6.400000e+01,
-6.400000e+01,
-6.160000e+01,
-6.400000e+01,
-6.160000e+01,
-6.400000e+01,
-6.160000e+01,
-6.400000e+01,
-6.160000e+01,
-6.400000e+01,
-6.160000e+01,
-6.400000e+01,
-6.160000e+01,
-6.400000e+01,
-6.160000e+01,
-6.400000e+01,
-6.160000e+01,
-6.400000e+01,
-6.160000e+01,
-6.400000e+01,
-6.160000e+01,
-6.400000e+01,
-6.160000e+01,
-6.400000e+01,
-6.160000e+01,
-6.400000e+01,
-6.160000e+01,
-6.400000e+01,
-6.160000e+01,
-6.400000e+01,
-6.160000e+01,
-6.400000e+01,
-6.160000e+01,
-6.400000e+01,
-6.160000e+01,
-6.400000e+01,
-6.160000e+01,
-6.400000e+01,
-6.160000e+01,
-6.400000e+01,
-6.160000e+01,
-6.400000e+01,
-6.160000e+01,
-6.400000e+01,
-6.160000e+01,
-6.400000e+01,
-6.160000e+01,
-6.400000e+01,
-6.160000e+01,
-6.400000e+01,
-6.160000e+01,
-6.400000e+01,
-6.160000e+01,
-6.400000e+01,
-6.160000e+01,
-6.400000e+01,
-6.160000e+01,
-6.160000e+01,
-6.400000e+01,
-6.400000e+01,
-6.160000e+01,
-6.400000e+01,
-6.160000e+01,
-6.400000e+01,
-6.160000e+01,
-6.400000e+01,
-6.160000e+01,
-6.400000e+01,
-6.160000e+01,
-6.400000e+01,
-6.160000e+01,
-6.400000e+01,
-6.160000e+01,
-6.400000e+01,
-6.160000e+01,
-6.400000e+01,
-6.160000e+01,
-6.400000e+01,
-6.160000e+01,
-6.400000e+01,
-6.160000e+01,
-6.400000e+01,
-6.160000e+01,
-6.400000e+01,
-6.160000e+01,
-6.400000e+01,
-6.160000e+01,
-6.400000e+01,
-6.160000e+01,
-6.400000e+01,
-6.160000e+01,
-6.400000e+01,
-6.160000e+01,
-6.400000e+01,
-6.160000e+01,
-6.400000e+01,
-6.160000e+01,
-6.160000e+01,
-6.400000e+01,
-6.400000e+01,
-6.160000e+01,
-6.400000e+01,
-6.160000e+01,
-6.400000e+01,
-6.160000e+01,
-6.400000e+01,
-6.160000e+01,
-6.400000e+01,
-6.160000e+01,
-6.400000e+01,
-6.160000e+01,
-6.400000e+01,
-6.160000e+01,
-6.400000e+01,
-6.160000e+01,
-6.400000e+01,
-6.160000e+01,
-6.400000e+01,
-6.160000e+01,
-6.160000e+01,
-6.400000e+01,
-6.400000e+01,
-6.160000e+01,
-6.160000e+01,
-6.400000e+01,
-6.400000e+01,
-6.160000e+01,
-6.400000e+01,
-6.160000e+01,
-6.400000e+01,
-6.160000e+01,
-6.160000e+01,
-6.400000e+01,
-6.160000e+01,
-6.400000e+01,
-6.160000e+01,
-6.400000e+01,
-6.400000e+01,
-6.160000e+01,
-6.160000e+01,
-6.560000e+01,
-6.400000e+01,
-6.080000e+01,
-6.400000e+01,
-6.160000e+01,
-6.400000e+01,
-6.160000e+01,
-6.400000e+01,
-6.160000e+01,
-6.400000e+01,
-6.160000e+01,
-6.400000e+01,
-6.160000e+01,
-6.400000e+01,
-6.160000e+01,
-6.400000e+01,
-6.160000e+01,
-6.400000e+01,
-6.160000e+01,
-6.400000e+01,
-6.160000e+01,
-6.400000e+01,
-6.160000e+01,
-6.400000e+01,
-6.160000e+01,
-6.400000e+01,
-6.160000e+01,
-6.400000e+01,
-6.160000e+01,
-6.400000e+01,
-6.160000e+01,
-6.400000e+01,
-6.160000e+01,
-6.400000e+01,
-6.160000e+01,
-6.400000e+01,
-6.160000e+01,
-6.400000e+01,
-6.160000e+01,
-6.400000e+01,
-6.160000e+01,
-6.400000e+01,
-6.160000e+01,
-6.400000e+01,
-6.160000e+01,
-6.400000e+01,
-6.160000e+01,
-6.400000e+01,
-6.160000e+01,
-6.400000e+01,
-6.160000e+01,
-6.160000e+01,
-6.400000e+01,
-6.400000e+01,
-6.160000e+01,
-6.160000e+01,
-6.400000e+01,
-6.400000e+01,
-6.160000e+01,
-6.400000e+01,
-6.160000e+01,
-6.400000e+01,
-6.160000e+01,
-6.400000e+01,
-6.160000e+01,
-6.400000e+01,
-6.160000e+01,
-6.400000e+01,
-6.160000e+01,
-6.400000e+01,
-6.160000e+01,
-6.160000e+01,
-6.400000e+01,
-6.400000e+01,
-6.160000e+01,
-6.400000e+01,
-6.160000e+01,
-6.400000e+01,
-6.160000e+01,
-6.400000e+01,
-6.160000e+01,
-6.400000e+01,
-6.160000e+01,
-6.400000e+01,
-6.160000e+01,
-6.400000e+01,
-6.160000e+01,
-6.400000e+01,
-6.160000e+01,
-6.160000e+01,
-6.400000e+01,
-6.400000e+01,
-6.160000e+01,
-6.400000e+01,
-6.160000e+01,
-6.400000e+01,
-6.160000e+01,
-6.400000e+01,
-6.160000e+01,
-6.400000e+01,
-6.160000e+01,
-6.400000e+01,
-6.160000e+01,
-6.400000e+01,
-6.160000e+01,
-6.160000e+01,
-6.400000e+01,
-6.400000e+01,
-6.160000e+01,
-6.400000e+01,
-6.160000e+01,
-6.400000e+01,
-6.160000e+01,
-6.400000e+01,
-6.160000e+01,
-6.400000e+01,
-6.160000e+01,
-6.400000e+01,
-6.160000e+01,
-6.160000e+01,
-6.400000e+01,
-6.400000e+01,
-6.160000e+01,
-6.400000e+01,
-6.160000e+01,
-6.160000e+01,
-6.400000e+01,
-6.160000e+01,
-6.400000e+01,
-6.400000e+01,
-6.160000e+01,
-6.160000e+01,
-6.400000e+01,
-6.400000e+01,
-6.160000e+01,
-6.400000e+01,
-6.160000e+01,
-6.400000e+01,
-6.160000e+01,
-6.400000e+01,
-6.160000e+01,
-6.400000e+01,
-6.160000e+01,
-6.160000e+01,
-6.400000e+01,
-6.160000e+01,
-6.400000e+01,
-6.160000e+01,
-6.400000e+01,
-6.160000e+01,
-6.400000e+01,
-6.400000e+01,
-6.160000e+01,
-6.400000e+01,
-6.160000e+01,
-6.400000e+01,
-6.160000e+01,
-6.400000e+01,
-6.160000e+01,
-6.400000e+01,
-6.160000e+01,
-6.400000e+01,
-6.160000e+01,
-6.400000e+01,
-6.160000e+01,
-6.160000e+01,
-6.400000e+01,
-6.400000e+01,
-6.160000e+01,
-6.160000e+01,
-6.400000e+01,
-6.400000e+01,
-6.160000e+01,
-6.160000e+01,
-6.400000e+01,
-6.400000e+01,
-6.160000e+01,
-6.400000e+01,
-6.160000e+01,
-6.400000e+01,
-6.160000e+01,
-6.400000e+01,
-6.160000e+01,
-6.400000e+01,
-6.160000e+01,
-6.400000e+01,
-6.160000e+01,
-6.400000e+01,
-6.160000e+01,
-6.400000e+01,
-6.160000e+01,
-6.400000e+01,
-6.160000e+01,
-6.400000e+01,
-6.160000e+01,
-6.400000e+01,
-6.160000e+01,
-6.400000e+01,
-6.160000e+01,
-6.400000e+01,
-6.160000e+01,
-6.400000e+01,
-6.160000e+01,
-6.160000e+01,
-6.400000e+01,
-6.160000e+01,
-6.400000e+01,
-6.400000e+01,
-6.160000e+01,
-6.160000e+01,
-6.400000e+01,
-6.160000e+01,
-6.400000e+01,
-6.400000e+01,
-6.160000e+01,
-6.160000e+01,
-6.400000e+01,
-6.160000e+01,
-6.400000e+01,
-6.160000e+01,
-6.400000e+01,
-6.400000e+01,
-6.160000e+01,
-6.160000e+01,
-6.400000e+01,
-6.400000e+01,
-6.160000e+01,
-6.160000e+01,
-6.400000e+01,
-6.160000e+01,
-6.400000e+01,
-6.400000e+01,
-6.160000e+01,
-6.400000e+01,
-6.160000e+01,
-6.160000e+01,
-6.400000e+01,
-6.400000e+01,
-6.160000e+01,
-6.400000e+01,
-6.160000e+01,
-6.160000e+01,
-6.400000e+01,
-6.400000e+01,
-6.160000e+01,
-6.400000e+01,
-6.160000e+01,
-6.160000e+01,
-6.480000e+01,
-6.560000e+01,
-2.400000e+01,
-2.080000e+01,
3.120000e+01,
9.600000e+00,
1.200000e+01,
1.120000e+01,
9.600000e+00,
1.120000e+01,
9.600000e+00,
1.120000e+01,
9.600000e+00,
1.120000e+01,
9.600000e+00,
9.600000e+00,
1.120000e+01,
9.600000e+00,
1.120000e+01,
9.600000e+00,
1.120000e+01,
9.600000e+00,
1.120000e+01,
9.600000e+00,
1.120000e+01,
1.120000e+01,
9.600000e+00,
9.600000e+00,
1.120000e+01,
1.120000e+01,
9.600000e+00,
9.600000e+00,
1.120000e+01,
9.600000e+00,
1.120000e+01,
9.600000e+00,
1.120000e+01,
1.120000e+01,
9.600000e+00,
9.600000e+00,
1.120000e+01,
1.120000e+01,
9.600000e+00,
9.600000e+00,
1.120000e+01,
9.600000e+00,
1.120000e+01,
9.600000e+00,
1.120000e+01,
9.600000e+00,
1.120000e+01,
9.600000e+00,
1.120000e+01,
9.600000e+00,
1.120000e+01,
9.600000e+00,
1.120000e+01,
9.600000e+00,
1.120000e+01,
9.600000e+00,
1.120000e+01,
9.600000e+00,
1.120000e+01,
9.600000e+00,
1.120000e+01,
9.600000e+00,
1.120000e+01,
9.600000e+00,
1.120000e+01,
1.120000e+01,
9.600000e+00,
1.120000e+01,
9.600000e+00,
9.600000e+00,
1.120000e+01,
1.120000e+01,
9.600000e+00,
9.600000e+00,
1.120000e+01,
9.600000e+00,
1.120000e+01,
9.600000e+00,
1.120000e+01,
9.600000e+00,
1.120000e+01,
9.600000e+00,
1.120000e+01,
9.600000e+00,
1.120000e+01,
1.120000e+01,
9.600000e+00,
1.120000e+01,
8.800000e+00,
9.600000e+00,
1.120000e+01,
9.600000e+00,
1.120000e+01,
1.120000e+01,
-1.040000e+01,
-1.040000e+01,
-6.960000e+01,
-7.120000e+01,
-6.160000e+01,
-6.400000e+01,
-6.240000e+01,
-6.400000e+01,
-6.240000e+01,
-6.400000e+01,
-6.160000e+01,
-6.400000e+01,
-6.160000e+01,
-6.400000e+01,
-6.160000e+01,
-6.400000e+01,
-6.160000e+01,
-6.400000e+01,
-6.160000e+01,
-6.400000e+01,
-6.160000e+01,
-6.400000e+01,
-6.160000e+01,
-6.400000e+01,
-6.160000e+01,
-6.400000e+01,
-6.160000e+01,
-6.400000e+01,
-6.160000e+01,
-6.400000e+01,
-6.160000e+01,
-6.400000e+01,
-6.160000e+01,
-6.400000e+01,
-6.160000e+01,
-6.400000e+01,
-6.160000e+01,
-6.400000e+01,
-6.160000e+01,
-6.400000e+01,
-6.160000e+01,
-6.400000e+01,
-6.160000e+01,
-6.400000e+01,
-6.160000e+01,
-6.160000e+01,
-6.400000e+01,
-6.400000e+01,
-6.160000e+01,
-6.400000e+01,
-6.160000e+01,
-6.400000e+01,
-6.160000e+01,
-6.400000e+01,
-6.160000e+01,
-6.400000e+01,
-6.160000e+01,
-6.400000e+01,
-6.160000e+01,
-6.400000e+01,
-6.160000e+01,
-6.400000e+01,
-6.160000e+01,
-6.400000e+01,
-6.160000e+01,
