Session 2/Waveforms/WaveForms/motor/MOTOR_80.csv

CH1,Start,Increment,
Volt,-1.276000e-04,2.000000e-07
8.800000e+00,
1.040000e+01,
8.800000e+00,
1.040000e+01,
8.800000e+00,
1.040000e+01,
8.800000e+00,
1.040000e+01,
8.800000e+00,
9.600000e+00,
8.800000e+00,
1.040000e+01,
9.600000e+00,
8.800000e+00,
8.800000e+00,
1.040000e+01,
8.800000e+00,
1.040000e+01,
8.800000e+00,
1.040000e+01,
8.800000e+00,
1.040000e+01,
8.800000e+00,
1.040000e+01,
8.800000e+00,
1.040000e+01,
1.040000e+01,
-1.360000e+01,
-1.360000e+01,
-7.680000e+01,
-6.080000e+01,
-6.560000e+01,
-6.400000e+01,
-6.240000e+01,
-6.400000e+01,
-6.240000e+01,
-6.400000e+01,
-6.240000e+01,
-6.240000e+01,
-6.400000e+01,
-6.400000e+01,
-6.240000e+01,
-6.400000e+01,
-6.240000e+01,
-6.400000e+01,
-6.240000e+01,
-6.400000e+01,
-6.240000e+01,
-6.400000e+01,
-6.240000e+01,
-6.400000e+01,
-6.240000e+01,
-6.400000e+01,
-6.160000e+01,
-6.400000e+01,
-6.240000e+01,
-6.400000e+01,
-6.160000e+01,
-6.400000e+01,
-6.240000e+01,
-6.400000e+01,
-6.240000e+01,
-6.400000e+01,
-6.160000e+01,
-6.240000e+01,
-6.480000e+01,
-6.480000e+01,
-6.160000e+01,
-6.400000e+01,
-6.160000e+01,
-6.400000e+01,
-6.240000e+01,
-6.400000e+01,
-6.160000e+01,
-6.400000e+01,
-6.240000e+01,
-6.400000e+01,
-6.160000e+01,
-6.400000e+01,
-6.160000e+01,
-6.400000e+01,
-6.160000e+01,
-6.400000e+01,
-6.160000e+01,
-6.400000e+01,
-6.160000e+01,
-6.400000e+01,
-6.240000e+01,
-6.400000e+01,
-6.160000e+01,
-6.400000e+01,
-6.160000e+01,
-6.400000e+01,
-6.240000e+01,
-6.400000e+01,
-6.160000e+01,
-6.400000e+01,
-6.240000e+01,
-6.400000e+01,
-6.160000e+01,
-6.400000e+01,
-6.240000e+01,
-6.400000e+01,
-6.240000e+01,
-6.400000e+01,
-6.160000e+01,
-6.400000e+01,
-6.160000e+01,
-6.400000e+01,
-6.160000e+01,
-6.400000e+01,
-6.240000e+01,
-6.400000e+01,
-6.160000e+01,
-6.400000e+01,
-6.160000e+01,
-6.400000e+01,
-6.240000e+01,
-6.400000e+01,
-6.160000e+01,
-6.400000e+01,
-6.160000e+01,
-6.400000e+01,
-6.160000e+01,
-6.240000e+01,
-6.400000e+01,
-6.400000e+01,
-6.160000e+01,
-6.400000e+01,
-6.160000e+01,
-6.400000e+01,
-6.160000e+01,
-6.400000e+01,
-6.160000e+01,
-6.160000e+01,
-6.480000e+01,
-6.480000e+01,
-1.680000e+01,
-1.440000e+01,
3.040000e+01,
1.200000e+01,
8.800000e+00,
9.600000e+00,
1.040000e+01,
9.600000e+00,
1.040000e+01,
1.040000e+01,
8.800000e+00,
1.040000e+01,
8.800000e+00,
1.040000e+01,
8.800000e+00,
8.800000e+00,
1.040000e+01,
1.040000e+01,
8.800000e+00,
8.800000e+00,
1.040000e+01,
1.040000e+01,
8.800000e+00,
1.040000e+01,
8.800000e+00,
1.040000e+01,
8.800000e+00,
8.800000e+00,
1.040000e+01,
1.040000e+01,
8.800000e+00,
1.040000e+01,
8.800000e+00,
1.040000e+01,
8.800000e+00,
8.800000e+00,
1.040000e+01,
1.040000e+01,
8.800000e+00,
1.040000e+01,
8.800000e+00,
8.800000e+00,
1.040000e+01,
1.040000e+01,
8.800000e+00,
8.800000e+00,
1.040000e+01,
8.800000e+00,
1.040000e+01,
1.040000e+01,
8.800000e+00,
8.800000e+00,
1.040000e+01,
1.040000e+01,
8.800000e+00,
1.040000e+01,
8.800000e+00,
1.040000e+01,
8.800000e+00,
8.800000e+00,
1.040000e+01,
1.040000e+01,
8.800000e+00,
1.040000e+01,
8.800000e+00,
1.040000e+01,
8.800000e+00,
8.800000e+00,
1.040000e+01,
1.040000e+01,
8.800000e+00,
1.040000e+01,
8.800000e+00,
1.040000e+01,
8.800000e+00,
1.040000e+01,
8.800000e+00,
1.040000e+01,
8.800000e+00,
8.800000e+00,
1.040000e+01,
1.040000e+01,
8.800000e+00,
8.800000e+00,
1.040000e+01,
1.040000e+01,
8.800000e+00,
1.040000e+01,
8.800000e+00,
8.800000e+00,
1.040000e+01,
8.800000e+00,
1.040000e+01,
1.040000e+01,
8.800000e+00,
1.040000e+01,
8.800000e+00,
1.040000e+01,
8.800000e+00,
1.040000e+01,
8.800000e+00,
1.040000e+01,
8.800000e+00,
8.800000e+00,
1.040000e+01,
1.040000e+01,
8.000000e+00,
1.040000e+01,
8.800000e+00,
1.040000e+01,
8.800000e+00,
1.040000e+01,
8.800000e+00,
8.800000e+00,
1.040000e+01,
1.040000e+01,
8.800000e+00,
1.120000e+01,
8.000000e+00,
1.040000e+01,
8.800000e+00,
8.800000e+00,
1.040000e+01,
8.800000e+00,
1.040000e+01,
8.800000e+00,
1.040000e+01,
8.800000e+00,
1.040000e+01,
1.040000e+01,
8.800000e+00,
8.800000e+00,
1.040000e+01,
1.040000e+01,
8.800000e+00,
1.040000e+01,
8.800000e+00,
8.800000e+00,
1.040000e+01,
8.800000e+00,
1.040000e+01,
8.800000e+00,
1.040000e+01,
1.200000e+01,
6.400000e+00,
1.120000e+01,
8.000000e+00,
1.040000e+01,
8.800000e+00,
1.040000e+01,
8.800000e+00,
1.040000e+01,
8.800000e+00,
8.800000e+00,
1.040000e+01,
1.040000e+01,
8.800000e+00,
8.800000e+00,
1.040000e+01,
8.800000e+00,
1.040000e+01,
8.800000e+00,
1.040000e+01,
8.800000e+00,
1.040000e+01,
8.800000e+00,
1.040000e+01,
8.800000e+00,
1.040000e+01,
8.800000e+00,
1.040000e+01,
1.040000e+01,
8.800000e+00,
8.800000e+00,
1.040000e+01,
1.040000e+01,
8.800000e+00,
8.800000e+00,
1.040000e+01,
1.040000e+01,
8.800000e+00,
8.800000e+00,
1.040000e+01,
8.800000e+00,
1.040000e+01,
1.040000e+01,
8.800000e+00,
8.800000e+00,
1.040000e+01,
1.040000e+01,
8.800000e+00,
1.040000e+01,
8.800000e+00,
1.040000e+01,
8.800000e+00,
1.040000e+01,
8.800000e+00,
1.040000e+01,
8.800000e+00,
1.040000e+01,
8.800000e+00,
8.800000e+00,
1.040000e+01,
8.800000e+00,
1.040000e+01,
1.040000e+01,
8.800000e+00,
1.040000e+01,
8.800000e+00,
8.800000e+00,
1.040000e+01,
8.800000e+00,
1.040000e+01,
1.040000e+01,
8.800000e+00,
8.800000e+00,
1.040000e+01,
8.800000e+00,
1.040000e+01,
8.800000e+00,
1.040000e+01,
8.800000e+00,
1.040000e+01,
1.040000e+01,
8.800000e+00,
8.800000e+00,
1.040000e+01,
8.800000e+00,
1.040000e+01,
8.800000e+00,
1.040000e+01,
8.800000e+00,
1.040000e+01,
1.040000e+01,
8.800000e+00,
8.800000e+00,
1.040000e+01,
1.040000e+01,
8.000000e+00,
1.040000e+01,
7.200000e+00,
7.200000e+00,
1.200000e+01,
8.000000e+00,
1.040000e+01,
1.040000e+01,
8.800000e+00,
8.800000e+00,
1.040000e+01,
1.040000e+01,
8.800000e+00,
1.040000e+01,
8.800000e+00,
1.040000e+01,
8.800000e+00,
8.800000e+00,
1.040000e+01,
1.040000e+01,
8.800000e+00,
1.040000e+01,
8.800000e+00,
1.040000e+01,
8.800000e+00,
8.800000e+00,
1.040000e+01,
8.800000e+00,
1.040000e+01,
8.800000e+00,
1.040000e+01,
1.040000e+01,
8.800000e+00,
8.800000e+00,
1.040000e+01,
1.040000e+01,
8.800000e+00,
1.040000e+01,
8.800000e+00,
1.040000e+01,
8.800000e+00,
1.040000e+01,
8.800000e+00,
8.800000e+00,
1.040000e+01,
1.040000e+01,
8.800000e+00,
8.800000e+00,
1.040000e+01,
8.800000e+00,
1.040000e+01,
1.040000e+01,
8.800000e+00,
1.040000e+01,
8.800000e+00,
8.800000e+00,
1.040000e+01,
8.800000e+00,
1.040000e+01,
8.800000e+00,
1.040000e+01,
1.040000e+01,
8.800000e+00,
8.800000e+00,
1.040000e+01,
8.800000e+00,
1.040000e+01,
1.040000e+01,
8.800000e+00,
8.800000e+00,
1.040000e+01,
8.800000e+00,
1.040000e+01,
8.800000e+00,
1.040000e+01,
8.800000e+00,
1.040000e+01,
8.800000e+00,
1.040000e+01,
8.800000e+00,
1.040000e+01,
8.800000e+00,
1.040000e+01,
1.040000e+01,
8.800000e+00,
1.040000e+01,
8.800000e+00,
8.800000e+00,
1.040000e+01,
8.800000e+00,
1.040000e+01,
8.800000e+00,
1.040000e+01,
8.800000e+00,
1.040000e+01,
8.800000e+00,
1.040000e+01,
1.040000e+01,
8.800000e+00,
1.040000e+01,
8.800000e+00,
8.800000e+00,
1.040000e+01,
8.800000e+00,
1.040000e+01,
1.040000e+01,
8.800000e+00,
8.800000e+00,
1.040000e+01,
1.040000e+01,
8.800000e+00,
1.040000e+01,
8.800000e+00,
8.800000e+00,
1.040000e+01,
8.800000e+00,
1.040000e+01,
8.800000e+00,
1.040000e+01,
8.800000e+00,
1.040000e+01,
8.800000e+00,
1.040000e+01,
1.040000e+01,
8.800000e+00,
8.800000e+00,
1.040000e+01,
8.800000e+00,
1.040000e+01,
8.800000e+00,
1.040000e+01,
8.800000e+00,
1.040000e+01,
8.800000e+00,
1.040000e+01,
8.800000e+00,
1.040000e+01,
1.040000e+01,
8.800000e+00,
1.040000e+01,
8.800000e+00,
8.800000e+00,
1.040000e+01,
8.800000e+00,
1.040000e+01,
8.800000e+00,
1.040000e+01,
8.800000e+00,
1.040000e+01,
8.800000e+00,
1.040000e+01,
1.040000e+01,
-1.760000e+01,
-1.760000e+01,
-7.520000e+01,
-6.080000e+01,
-6.480000e+01,
-6.400000e+01,
-6.240000e+01,
-6.400000e+01,
-6.240000e+01,
-6.400000e+01,
-6.240000e+01,
-6.400000e+01,
-6.240000e+01,
-6.400000e+01,
-6.240000e+01,
-6.400000e+01,
-6.240000e+01,
-6.400000e+01,
-6.240000e+01,
-6.240000e+01,
-6.400000e+01,
-6.400000e+01,
-6.160000e+01,
-6.400000e+01,
-6.240000e+01,
-6.240000e+01,
-6.400000e+01,
-6.400000e+01,
-6.240000e+01,
-6.400000e+01,
-6.240000e+01,
-6.400000e+01,
-6.240000e+01,
-6.400000e+01,
-6.240000e+01,
-6.400000e+01,
-6.240000e+01,
-6.240000e+01,
-6.400000e+01,
-6.400000e+01,
-6.240000e+01,
-6.400000e+01,
-6.240000e+01,
-6.400000e+01,
-6.240000e+01,
-6.400000e+01,
-6.240000e+01,
-6.400000e+01,
-6.240000e+01,
-6.400000e+01,
-6.240000e+01,
-6.400000e+01,
-6.240000e+01,
-6.400000e+01,
-6.240000e+01,
-6.400000e+01,
-6.240000e+01,
-6.400000e+01,
-6.240000e+01,
-6.400000e+01,
-6.240000e+01,
-6.240000e+01,
-6.400000e+01,
-6.400000e+01,
-6.240000e+01,
-6.400000e+01,
-6.160000e+01,
-6.400000e+01,
-6.240000e+01,
-6.400000e+01,
-6.160000e+01,
-6.400000e+01,
-6.240000e+01,
-6.400000e+01,
-6.240000e+01,
-6.400000e+01,
-6.160000e+01,
-6.400000e+01,
-6.240000e+01,
-6.400000e+01,
-6.240000e+01,
-6.400000e+01,
-6.160000e+01,
-6.240000e+01,
-6.400000e+01,
-6.400000e+01,
-6.240000e+01,
-6.400000e+01,
-6.160000e+01,
-6.400000e+01,
-6.160000e+01,
-6.400000e+01,
-6.240000e+01,
-6.400000e+01,
-6.240000e+01,
-6.400000e+01,
-6.240000e+01,
-6.400000e+01,
-6.240000e+01,
-6.400000e+01,
-6.160000e+01,
-6.400000e+01,
-6.160000e+01,
-6.400000e+01,
-6.160000e+01,
-6.400000e+01,
-6.240000e+01,
-6.240000e+01,
-6.480000e+01,
-6.560000e+01,
-2.080000e+01,
-1.680000e+01,
3.120000e+01,
7.200000e+00,
1.200000e+01,
9.600000e+00,
1.040000e+01,
9.600000e+00,
1.040000e+01,
1.040000e+01,
8.800000e+00,
1.040000e+01,
8.800000e+00,
1.040000e+01,
8.800000e+00,
1.040000e+01,
8.800000e+00,
1.040000e+01,
8.800000e+00,
1.040000e+01,
8.800000e+00,
8.800000e+00,
1.040000e+01,
8.800000e+00,
1.040000e+01,
1.040000e+01,
8.800000e+00,
8.800000e+00,
1.040000e+01,
1.040000e+01,
8.800000e+00,
1.040000e+01,
8.800000e+00,
1.040000e+01,
8.800000e+00,
1.040000e+01,
8.800000e+00,
1.040000e+01,
8.800000e+00,
8.800000e+00,
1.040000e+01,
1.040000e+01,
8.800000e+00,
8.800000e+00,
1.040000e+01,
1.040000e+01,
8.800000e+00,
8.800000e+00,
1.040000e+01,
1.040000e+01,
8.800000e+00,
1.040000e+01,
8.800000e+00,
1.040000e+01,
8.800000e+00,
1.040000e+01,
8.800000e+00,
1.040000e+01,
8.800000e+00,
8.800000e+00,
1.040000e+01,
1.040000e+01,
8.800000e+00,
1.040000e+01,
8.800000e+00,
8.800000e+00,
1.040000e+01,
1.040000e+01,
8.800000e+00,
1.040000e+01,
8.800000e+00,
1.040000e+01,
8.800000e+00,
1.040000e+01,
8.800000e+00,
1.040000e+01,
8.800000e+00,
8.800000e+00,
1.040000e+01,
8.800000e+00,
1.040000e+01,
1.040000e+01,
8.800000e+00,
8.800000e+00,
1.040000e+01,
1.040000e+01,
8.800000e+00,
8.800000e+00,
1.040000e+01,
8.800000e+00,
1.040000e+01,
8.800000e+00,
1.040000e+01,
1.040000e+01,
8.800000e+00,
8.800000e+00,
1.040000e+01,
8.800000e+00,
1.040000e+01,
8.800000e+00,
1.040000e+01,
1.040000e+01,
8.800000e+00,
8.800000e+00,
1.040000e+01,
8.800000e+00,
1.040000e+01,
8.800000e+00,
1.040000e+01,
1.040000e+01,
8.800000e+00,
1.040000e+01,
8.800000e+00,
1.040000e+01,
8.800000e+00,
1.040000e+01,
8.800000e+00,
1.040000e+01,
8.800000e+00,
1.040000e+01,
8.800000e+00,
8.800000e+00,
1.040000e+01,
8.800000e+00,
1.040000e+01,
8.800000e+00,
1.040000e+01,
1.040000e+01,
8.800000e+00,
1.040000e+01,
8.800000e+00,
8.800000e+00,
1.040000e+01,
1.040000e+01,
8.800000e+00,
8.800000e+00,
1.040000e+01,
8.800000e+00,
1.040000e+01,
1.040000e+01,
8.800000e+00,
8.800000e+00,
1.040000e+01,
1.200000e+01,
6.400000e+00,
1.120000e+01,
8.000000e+00,
1.040000e+01,
8.800000e+00,
8.800000e+00,
1.040000e+01,
1.040000e+01,
8.800000e+00,
1.040000e+01,
8.800000e+00,
8.800000e+00,
1.040000e+01,
8.800000e+00,
1.040000e+01,
1.040000e+01,
8.800000e+00,
8.800000e+00,
1.040000e+01,
8.800000e+00,
1.040000e+01,
8.800000e+00,
1.040000e+01,
1.040000e+01,
8.800000e+00,
8.800000e+00,
1.040000e+01,
1.040000e+01,
8.800000e+00,
1.040000e+01,
8.800000e+00,
1.040000e+01,
8.800000e+00,
8.800000e+00,
1.040000e+01,
1.040000e+01,
8.800000e+00,
1.040000e+01,
8.800000e+00,
1.040000e+01,
8.800000e+00,
1.040000e+01,
8.800000e+00,
1.040000e+01,
8.800000e+00,
8.800000e+00,
1.040000e+01,
8.800000e+00,
1.040000e+01,
1.040000e+01,
8.800000e+00,
8.800000e+00,
1.040000e+01,
8.800000e+00,
1.040000e+01,
8.800000e+00,
1.040000e+01,
1.040000e+01,
8.800000e+00,
8.800000e+00,
1.040000e+01,
1.040000e+01,
8.800000e+00,
8.800000e+00,
1.040000e+01,
8.800000e+00,
1.040000e+01,
1.040000e+01,
8.800000e+00,
8.800000e+00,
1.040000e+01,
8.800000e+00,
1.040000e+01,
1.040000e+01,
8.800000e+00,
1.040000e+01,
8.800000e+00,
1.040000e+01,
8.800000e+00,
1.040000e+01,
8.800000e+00,
8.800000e+00,
1.040000e+01,
1.040000e+01,
8.800000e+00,
8.800000e+00,
1.040000e+01,
1.040000e+01,
8.800000e+00,
1.040000e+01,
8.800000e+00,
8.800000e+00,
1.040000e+01,
8.800000e+00,
1.040000e+01,
1.040000e+01,
7.200000e+00,
7.200000e+00,
1.200000e+01,
8.000000e+00,
1.040000e+01,
8.800000e+00,
1.040000e+01,
8.800000e+00,
1.040000e+01,
8.800000e+00,
1.040000e+01,
8.800000e+00,
1.040000e+01,
1.040000e+01,
8.800000e+00,
1.040000e+01,
8.800000e+00,
8.800000e+00,
1.040000e+01,
8.800000e+00,
1.040000e+01,
8.800000e+00,
1.040000e+01,
8.800000e+00,
1.040000e+01,
8.800000e+00,
1.040000e+01,
1.040000e+01,
8.800000e+00,
1.040000e+01,
8.800000e+00,
1.040000e+01,
8.800000e+00,
8.800000e+00,
1.040000e+01,
8.800000e+00,
1.040000e+01,
8.800000e+00,
1.040000e+01,
1.040000e+01,
8.800000e+00,
1.040000e+01,
8.800000e+00,
8.800000e+00,
1.040000e+01,
8.800000e+00,
1.040000e+01,
8.800000e+00,
1.040000e+01,
8.800000e+00,
1.040000e+01,
1.040000e+01,
8.800000e+00,
8.800000e+00,
1.040000e+01,
8.800000e+00,
1.040000e+01,
8.800000e+00,
1.040000e+01,
8.800000e+00,
1.040000e+01,
1.040000e+01,
8.800000e+00,
8.800000e+00,
1.040000e+01,
8.800000e+00,
1.040000e+01,
8.800000e+00,
1.040000e+01,
8.800000e+00,
1.040000e+01,
8.800000e+00,
1.040000e+01,
8.800000e+00,
1.040000e+01,
8.800000e+00,
1.040000e+01,
8.800000e+00,
1.040000e+01,
8.800000e+00,
1.040000e+01,
1.040000e+01,
8.800000e+00,
1.040000e+01,
8.800000e+00,
1.040000e+01,
8.800000e+00,
8.800000e+00,
1.040000e+01,
8.800000e+00,
1.040000e+01,
8.800000e+00,
1.040000e+01,
8.800000e+00,
1.040000e+01,
1.040000e+01,
8.800000e+00,
8.800000e+00,
1.040000e+01,
8.800000e+00,
1.040000e+01,
1.040000e+01,
8.800000e+00,
8.800000e+00,
1.040000e+01,
8.800000e+00,
1.040000e+01,
1.040000e+01,
8.800000e+00,
8.800000e+00,
1.040000e+01,
8.800000e+00,
1.040000e+01,
8.800000e+00,
1.040000e+01,
8.800000e+00,
1.040000e+01,
8.800000e+00,
1.040000e+01,
8.800000e+00,
1.040000e+01,
8.800000e+00,
1.040000e+01,
8.800000e+00,
1.040000e+01,
8.800000e+00,
1.040000e+01,
8.800000e+00,
1.040000e+01,
8.800000e+00,
1.040000e+01,
8.800000e+00,
1.040000e+01,
8.800000e+00,
1.040000e+01,
8.800000e+00,
1.040000e+01,
8.800000e+00,
1.040000e+01,
8.800000e+00,
1.040000e+01,
8.800000e+00,
1.040000e+01,
8.800000e+00,
1.040000e+01,
8.800000e+00,
1.040000e+01,
8.800000e+00,
1.040000e+01,
1.040000e+01,
-2.320000e+01,
-2.160000e+01,
-7.440000e+01,
-6.080000e+01,
-6.480000e+01,
-6.400000e+01,
-6.240000e+01,
-6.400000e+01,
-6.240000e+01,
-6.400000e+01,
-6.240000e+01,
-6.400000e+01,
-6.240000e+01,
-6.400000e+01,
-6.240000e+01,
-6.400000e+01,
-6.240000e+01,
-6.400000e+01,
-6.240000e+01,
-6.240000e+01,
-6.400000e+01,
-6.400000e+01,
-6.240000e+01,
-6.400000e+01,
-6.240000e+01,
-6.400000e+01,
-6.240000e+01,
-6.400000e+01,
-6.240000e+01,
-6.400000e+01,
-6.240000e+01,
-6.400000e+01,
-6.240000e+01,
-6.400000e+01,
-6.240000e+01,
-6.400000e+01,
-6.240000e+01,
-6.400000e+01,
-6.240000e+01,
-6.400000e+01,
-6.240000e+01,
-6.400000e+01,
-6.240000e+01,
-6.240000e+01,
-6.400000e+01,
-6.400000e+01,
-6.160000e+01,
-6.400000e+01,
-6.240000e+01,
-6.240000e+01,
-6.400000e+01,
-6.400000e+01,
-6.240000e+01,
-6.400000e+01,
-6.240000e+01,
-6.400000e+01,
-6.240000e+01,
-6.400000e+01,
-6.160000e+01,
-6.400000e+01,
-6.240000e+01,
-6.240000e+01,
-6.400000e+01,
-6.240000e+01,
-6.400000e+01,
-6.400000e+01,
-6.240000e+01,
-6.400000e+01,
-6.240000e+01,
-6.240000e+01,
-6.400000e+01,
-6.400000e+01,
-6.240000e+01,
-6.400000e+01,
-6.240000e+01,
-6.400000e+01,
-6.160000e+01,
-6.400000e+01,
-6.240000e+01,
-6.400000e+01,
-6.240000e+01,
-6.400000e+01,
-6.160000e+01,
-6.400000e+01,
-6.240000e+01,
-6.400000e+01,
-6.240000e+01,
-6.400000e+01,
-6.240000e+01,
-6.400000e+01,
-6.240000e+01,
-6.400000e+01,
-6.240000e+01,
-6.240000e+01,
-6.400000e+01,
-6.400000e+01,
-6.160000e+01,
-6.400000e+01,
-6.240000e+01,
-6.240000e+01,
-6.400000e+01,
-6.400000e+01,
-6.160000e+01,
-6.400000e+01,
-6.160000e+01,
-6.400000e+01,
-6.160000e+01,
-6.240000e+01,
-6.480000e+01,
-6.560000e+01,
-2.160000e+01,
-1.840000e+01,
3.200000e+01,
5.600000e+00,
1.200000e+01,
1.040000e+01,
8.800000e+00,
1.040000e+01,
8.800000e+00,
1.040000e+01,
8.800000e+00,
1.040000e+01,
8.800000e+00,
1.040000e+01,
8.800000e+00,
1.040000e+01,
8.800000e+00,
8.800000e+00,
1.040000e+01,
1.040000e+01,
8.800000e+00,
1.040000e+01,
8.800000e+00,
1.040000e+01,
8.800000e+00,
1.040000e+01,
8.800000e+00,
8.800000e+00,
1.040000e+01,
8.800000e+00,
1.040000e+01,
8.800000e+00,
1.040000e+01,
1.040000e+01,
8.800000e+00,
8.800000e+00,
1.040000e+01,
1.040000e+01,
8.800000e+00,
8.800000e+00,
1.040000e+01,
1.040000e+01,
8.800000e+00,
8.800000e+00,
1.040000e+01,
8.800000e+00,
1.040000e+01,
8.800000e+00,
1.040000e+01,
8.800000e+00,
1.040000e+01,
8.800000e+00,
1.040000e+01,
8.800000e+00,
1.040000e+01,
8.800000e+00,
1.040000e+01,
8.800000e+00,
1.040000e+01,
1.040000e+01,
8.800000e+00,
1.040000e+01,
8.800000e+00,
