Session 2/Waveforms/WaveForms/1/HO_IN.csv

CH1,Start,Increment,
Volt,-1.200000e-04,2.000000e-07
7.200000e+00,
8.000000e+00,
8.000000e+00,
-1.360000e+01,
-1.320000e+01,
-1.200000e+01,
-1.240000e+01,
-1.280000e+01,
-1.240000e+01,
-1.280000e+01,
-1.280000e+01,
-1.240000e+01,
-1.240000e+01,
-1.280000e+01,
-1.280000e+01,
-1.240000e+01,
-1.240000e+01,
-1.280000e+01,
-1.240000e+01,
-1.280000e+01,
-1.240000e+01,
-1.280000e+01,
-1.240000e+01,
-1.280000e+01,
-1.280000e+01,
-1.200000e+01,
-1.280000e+01,
-1.240000e+01,
-1.240000e+01,
-1.280000e+01,
-1.240000e+01,
-1.280000e+01,
-1.240000e+01,
-1.280000e+01,
-1.240000e+01,
-1.280000e+01,
-1.280000e+01,
-1.240000e+01,
-1.280000e+01,
-1.240000e+01,
-1.280000e+01,
-1.200000e+01,
-1.280000e+01,
-1.200000e+01,
-1.280000e+01,
-1.200000e+01,
-1.200000e+01,
-1.280000e+01,
-1.280000e+01,
-1.200000e+01,
-1.280000e+01,
-1.200000e+01,
-1.200000e+01,
-1.280000e+01,
-1.200000e+01,
-1.280000e+01,
-1.280000e+01,
-1.200000e+01,
-1.280000e+01,
-1.200000e+01,
-1.280000e+01,
-1.200000e+01,
-1.280000e+01,
-1.200000e+01,
-1.280000e+01,
-1.200000e+01,
-1.280000e+01,
-1.200000e+01,
-1.280000e+01,
-1.200000e+01,
-1.200000e+01,
-1.280000e+01,
-1.280000e+01,
-1.200000e+01,
-1.280000e+01,
-1.200000e+01,
-1.280000e+01,
-1.200000e+01,
-1.280000e+01,
-1.200000e+01,
-1.200000e+01,
-1.280000e+01,
-1.200000e+01,
-1.280000e+01,
-1.200000e+01,
-1.280000e+01,
-1.280000e+01,
-1.200000e+01,
-1.280000e+01,
-1.200000e+01,
-1.200000e+01,
-1.280000e+01,
-1.280000e+01,
-1.200000e+01,
-1.280000e+01,
-1.200000e+01,
-1.800000e+01,
-5.600000e+00,
-5.600000e+00,
1.600000e+00,
1.200000e+00,
2.800000e+00,
2.800000e+00,
1.600000e+00,
1.600000e+00,
2.800000e+00,
2.800000e+00,
1.600000e+00,
1.600000e+00,
2.800000e+00,
2.800000e+00,
1.600000e+00,
2.800000e+00,
1.600000e+00,
1.600000e+00,
2.800000e+00,
2.800000e+00,
1.600000e+00,
1.600000e+00,
2.800000e+00,
1.600000e+00,
2.800000e+00,
1.600000e+00,
2.800000e+00,
1.600000e+00,
2.800000e+00,
1.600000e+00,
2.800000e+00,
1.600000e+00,
2.800000e+00,
1.600000e+00,
2.800000e+00,
2.800000e+00,
1.600000e+00,
2.800000e+00,
1.600000e+00,
1.600000e+00,
2.800000e+00,
1.600000e+00,
2.800000e+00,
2.800000e+00,
1.600000e+00,
1.600000e+00,
2.800000e+00,
1.600000e+00,
2.800000e+00,
2.800000e+00,
1.600000e+00,
1.600000e+00,
2.800000e+00,
1.600000e+00,
2.800000e+00,
1.600000e+00,
2.800000e+00,
2.800000e+00,
1.600000e+00,
1.600000e+00,
2.800000e+00,
2.800000e+00,
1.600000e+00,
1.600000e+00,
2.800000e+00,
2.800000e+00,
1.600000e+00,
1.600000e+00,
2.800000e+00,
1.600000e+00,
2.800000e+00,
2.800000e+00,
1.600000e+00,
1.600000e+00,
2.800000e+00,
1.600000e+00,
2.800000e+00,
1.600000e+00,
2.800000e+00,
1.600000e+00,
2.800000e+00,
1.600000e+00,
2.800000e+00,
1.600000e+00,
2.800000e+00,
1.600000e+00,
2.800000e+00,
1.600000e+00,
2.800000e+00,
1.600000e+00,
2.800000e+00,
1.600000e+00,
2.800000e+00,
1.600000e+00,
2.800000e+00,
2.800000e+00,
1.600000e+00,
1.600000e+00,
2.800000e+00,
1.600000e+00,
2.800000e+00,
2.800000e+00,
1.600000e+00,
2.800000e+00,
1.600000e+00,
1.600000e+00,
2.800000e+00,
2.800000e+00,
1.600000e+00,
1.600000e+00,
2.800000e+00,
2.800000e+00,
1.600000e+00,
1.600000e+00,
2.800000e+00,
1.600000e+00,
2.800000e+00,
2.800000e+00,
1.600000e+00,
2.800000e+00,
1.600000e+00,
1.600000e+00,
2.800000e+00,
1.600000e+00,
2.800000e+00,
2.800000e+00,
1.600000e+00,
1.600000e+00,
2.800000e+00,
1.600000e+00,
2.800000e+00,
1.600000e+00,
2.800000e+00,
2.800000e+00,
1.600000e+00,
2.800000e+00,
1.600000e+00,
1.600000e+00,
2.800000e+00,
1.600000e+00,
2.800000e+00,
2.800000e+00,
1.600000e+00,
1.600000e+00,
2.800000e+00,
1.600000e+00,
2.800000e+00,
2.800000e+00,
1.600000e+00,
2.800000e+00,
1.600000e+00,
1.600000e+00,
2.800000e+00,
2.800000e+00,
1.600000e+00,
1.600000e+00,
2.800000e+00,
1.600000e+00,
2.800000e+00,
1.600000e+00,
2.800000e+00,
1.600000e+00,
2.800000e+00,
1.600000e+00,
2.800000e+00,
1.600000e+00,
2.800000e+00,
1.600000e+00,
2.800000e+00,
1.600000e+00,
2.800000e+00,
1.600000e+00,
2.800000e+00,
1.600000e+00,
2.800000e+00,
1.600000e+00,
2.800000e+00,
2.800000e+00,
1.600000e+00,
1.600000e+00,
2.800000e+00,
2.800000e+00,
1.600000e+00,
1.600000e+00,
2.800000e+00,
1.600000e+00,
2.800000e+00,
1.600000e+00,
2.800000e+00,
2.800000e+00,
1.600000e+00,
1.600000e+00,
2.800000e+00,
1.600000e+00,
2.800000e+00,
1.600000e+00,
2.800000e+00,
1.600000e+00,
2.800000e+00,
2.800000e+00,
1.600000e+00,
1.600000e+00,
2.800000e+00,
1.600000e+00,
2.800000e+00,
2.800000e+00,
1.600000e+00,
2.800000e+00,
1.600000e+00,
2.800000e+00,
1.600000e+00,
2.800000e+00,
1.600000e+00,
1.600000e+00,
2.800000e+00,
1.600000e+00,
2.800000e+00,
2.800000e+00,
1.600000e+00,
1.600000e+00,
2.800000e+00,
2.800000e+00,
1.600000e+00,
2.800000e+00,
1.600000e+00,
2.800000e+00,
1.600000e+00,
1.600000e+00,
2.800000e+00,
1.600000e+00,
2.800000e+00,
2.800000e+00,
1.600000e+00,
2.800000e+00,
1.600000e+00,
2.800000e+00,
1.600000e+00,
1.600000e+00,
2.800000e+00,
2.800000e+00,
1.600000e+00,
1.600000e+00,
2.800000e+00,
2.800000e+00,
1.600000e+00,
2.800000e+00,
1.600000e+00,
1.600000e+00,
2.800000e+00,
1.600000e+00,
2.800000e+00,
1.600000e+00,
2.800000e+00,
1.600000e+00,
2.800000e+00,
1.600000e+00,
2.800000e+00,
1.600000e+00,
2.800000e+00,
1.600000e+00,
2.800000e+00,
1.600000e+00,
2.800000e+00,
1.600000e+00,
2.800000e+00,
1.600000e+00,
2.800000e+00,
2.800000e+00,
1.600000e+00,
1.600000e+00,
2.800000e+00,
1.600000e+00,
2.800000e+00,
2.800000e+00,
1.600000e+00,
1.600000e+00,
2.800000e+00,
2.800000e+00,
1.600000e+00,
2.800000e+00,
1.600000e+00,
1.600000e+00,
2.800000e+00,
1.600000e+00,
2.800000e+00,
2.800000e+00,
1.600000e+00,
1.600000e+00,
2.800000e+00,
1.600000e+00,
2.800000e+00,
1.600000e+00,
2.800000e+00,
2.800000e+00,
1.600000e+00,
1.600000e+00,
2.800000e+00,
2.800000e+00,
1.600000e+00,
2.800000e+00,
1.600000e+00,
1.600000e+00,
2.800000e+00,
2.800000e+00,
1.600000e+00,
1.600000e+00,
2.800000e+00,
1.600000e+00,
2.800000e+00,
2.800000e+00,
1.600000e+00,
2.800000e+00,
1.600000e+00,
1.600000e+00,
2.800000e+00,
1.600000e+00,
2.800000e+00,
1.600000e+00,
2.800000e+00,
2.800000e+00,
1.600000e+00,
1.600000e+00,
2.800000e+00,
1.600000e+00,
2.800000e+00,
2.800000e+00,
1.600000e+00,
2.800000e+00,
1.600000e+00,
1.600000e+00,
2.800000e+00,
2.800000e+00,
1.600000e+00,
1.600000e+00,
2.800000e+00,
2.800000e+00,
1.600000e+00,
2.800000e+00,
1.600000e+00,
1.600000e+00,
2.800000e+00,
1.600000e+00,
2.800000e+00,
1.600000e+00,
2.800000e+00,
1.600000e+00,
2.800000e+00,
1.600000e+00,
2.800000e+00,
1.600000e+00,
2.800000e+00,
2.800000e+00,
1.600000e+00,
1.600000e+00,
2.800000e+00,
1.600000e+00,
2.800000e+00,
2.800000e+00,
1.600000e+00,
2.800000e+00,
1.600000e+00,
1.600000e+00,
2.800000e+00,
2.800000e+00,
1.600000e+00,
1.600000e+00,
2.800000e+00,
1.600000e+00,
2.800000e+00,
1.600000e+00,
2.800000e+00,
1.600000e+00,
2.800000e+00,
2.800000e+00,
1.600000e+00,
2.800000e+00,
1.600000e+00,
1.600000e+00,
2.800000e+00,
1.600000e+00,
2.800000e+00,
2.800000e+00,
1.600000e+00,
2.800000e+00,
1.600000e+00,
2.800000e+00,
1.600000e+00,
1.600000e+00,
2.800000e+00,
1.600000e+00,
2.800000e+00,
2.800000e+00,
1.600000e+00,
2.800000e+00,
1.600000e+00,
1.600000e+00,
2.800000e+00,
1.600000e+00,
2.800000e+00,
1.600000e+00,
2.800000e+00,
1.600000e+00,
7.600000e+00,
7.200000e+00,
8.000000e+00,
8.000000e+00,
-1.400000e+01,
-1.320000e+01,
-1.200000e+01,
-1.240000e+01,
-1.320000e+01,
-1.280000e+01,
-1.240000e+01,
-1.240000e+01,
-1.280000e+01,
-1.240000e+01,
-1.280000e+01,
-1.280000e+01,
-1.240000e+01,
-1.240000e+01,
-1.280000e+01,
-1.240000e+01,
-1.280000e+01,
-1.240000e+01,
-1.280000e+01,
-1.240000e+01,
-1.280000e+01,
-1.280000e+01,
-1.240000e+01,
-1.280000e+01,
-1.240000e+01,
-1.280000e+01,
-1.240000e+01,
-1.240000e+01,
-1.280000e+01,
-1.280000e+01,
-1.240000e+01,
-1.280000e+01,
-1.240000e+01,
-1.280000e+01,
-1.240000e+01,
-1.280000e+01,
-1.200000e+01,
-1.240000e+01,
-1.280000e+01,
-1.240000e+01,
-1.280000e+01,
-1.280000e+01,
-1.200000e+01,
-1.240000e+01,
-1.280000e+01,
-1.200000e+01,
-1.280000e+01,
-1.280000e+01,
-1.200000e+01,
-1.280000e+01,
-1.200000e+01,
-1.280000e+01,
-1.200000e+01,
-1.280000e+01,
-1.200000e+01,
-1.280000e+01,
-1.200000e+01,
-1.280000e+01,
-1.200000e+01,
-1.280000e+01,
-1.200000e+01,
-1.280000e+01,
-1.200000e+01,
-1.280000e+01,
-1.200000e+01,
-1.200000e+01,
-1.280000e+01,
-1.280000e+01,
-1.200000e+01,
-1.280000e+01,
-1.200000e+01,
-1.200000e+01,
-1.280000e+01,
-1.280000e+01,
-1.200000e+01,
-1.280000e+01,
-1.200000e+01,
-1.280000e+01,
-1.200000e+01,
-1.280000e+01,
-1.200000e+01,
-1.280000e+01,
-1.200000e+01,
-1.280000e+01,
-1.200000e+01,
-1.280000e+01,
-1.200000e+01,
-1.280000e+01,
-1.200000e+01,
-1.280000e+01,
-1.200000e+01,
-1.200000e+01,
-1.280000e+01,
-1.800000e+01,
-5.600000e+00,
-5.600000e+00,
1.600000e+00,
1.200000e+00,
2.800000e+00,
2.800000e+00,
1.600000e+00,
1.600000e+00,
2.800000e+00,
2.800000e+00,
1.600000e+00,
2.800000e+00,
1.600000e+00,
1.600000e+00,
2.800000e+00,
1.600000e+00,
2.800000e+00,
1.600000e+00,
2.800000e+00,
2.800000e+00,
1.600000e+00,
1.600000e+00,
2.800000e+00,
1.600000e+00,
2.800000e+00,
2.800000e+00,
1.600000e+00,
1.600000e+00,
2.800000e+00,
1.600000e+00,
2.800000e+00,
1.600000e+00,
2.800000e+00,
2.800000e+00,
1.600000e+00,
1.600000e+00,
2.800000e+00,
1.600000e+00,
2.800000e+00,
2.800000e+00,
1.600000e+00,
1.600000e+00,
2.800000e+00,
1.600000e+00,
2.800000e+00,
2.800000e+00,
1.600000e+00,
1.600000e+00,
2.800000e+00,
1.600000e+00,
2.800000e+00,
1.600000e+00,
2.800000e+00,
2.800000e+00,
1.600000e+00,
1.600000e+00,
2.800000e+00,
1.600000e+00,
2.800000e+00,
2.800000e+00,
1.600000e+00,
2.800000e+00,
1.600000e+00,
2.800000e+00,
1.600000e+00,
2.800000e+00,
1.600000e+00,
1.600000e+00,
2.800000e+00,
1.600000e+00,
2.800000e+00,
1.600000e+00,
2.800000e+00,
1.600000e+00,
2.800000e+00,
2.800000e+00,
1.600000e+00,
1.600000e+00,
2.800000e+00,
1.600000e+00,
2.800000e+00,
2.800000e+00,
1.600000e+00,
1.600000e+00,
2.800000e+00,
1.600000e+00,
2.800000e+00,
1.600000e+00,
2.800000e+00,
2.800000e+00,
1.600000e+00,
1.600000e+00,
2.800000e+00,
2.800000e+00,
1.600000e+00,
1.600000e+00,
2.800000e+00,
2.800000e+00,
1.600000e+00,
1.600000e+00,
2.800000e+00,
2.800000e+00,
1.600000e+00,
2.800000e+00,
1.600000e+00,
1.600000e+00,
2.800000e+00,
1.600000e+00,
2.800000e+00,
1.600000e+00,
2.800000e+00,
2.800000e+00,
1.600000e+00,
1.600000e+00,
2.800000e+00,
1.600000e+00,
2.800000e+00,
1.600000e+00,
2.800000e+00,
1.600000e+00,
2.800000e+00,
1.600000e+00,
2.800000e+00,
1.600000e+00,
2.800000e+00,
2.800000e+00,
1.600000e+00,
2.800000e+00,
1.600000e+00,
1.600000e+00,
2.800000e+00,
1.600000e+00,
2.800000e+00,
2.800000e+00,
1.600000e+00,
2.800000e+00,
1.600000e+00,
1.600000e+00,
2.800000e+00,
1.600000e+00,
2.800000e+00,
1.600000e+00,
2.800000e+00,
2.800000e+00,
1.600000e+00,
1.600000e+00,
2.800000e+00,
1.600000e+00,
2.800000e+00,
2.800000e+00,
1.600000e+00,
1.600000e+00,
2.800000e+00,
1.600000e+00,
2.800000e+00,
1.600000e+00,
2.800000e+00,
2.800000e+00,
1.600000e+00,
1.600000e+00,
2.800000e+00,
2.800000e+00,
1.600000e+00,
1.600000e+00,
2.800000e+00,
2.800000e+00,
1.600000e+00,
2.800000e+00,
1.600000e+00,
1.600000e+00,
2.800000e+00,
1.600000e+00,
2.800000e+00,
2.800000e+00,
1.600000e+00,
1.600000e+00,
2.800000e+00,
2.800000e+00,
1.600000e+00,
2.800000e+00,
1.600000e+00,
2.800000e+00,
1.600000e+00,
1.600000e+00,
2.800000e+00,
1.600000e+00,
2.800000e+00,
1.600000e+00,
2.800000e+00,
1.600000e+00,
2.800000e+00,
1.600000e+00,
2.800000e+00,
1.600000e+00,
2.800000e+00,
1.600000e+00,
2.800000e+00,
1.600000e+00,
2.800000e+00,
1.600000e+00,
2.800000e+00,
1.600000e+00,
2.800000e+00,
1.600000e+00,
2.800000e+00,
1.600000e+00,
2.800000e+00,
1.600000e+00,
2.800000e+00,
2.800000e+00,
1.600000e+00,
1.600000e+00,
2.800000e+00,
1.600000e+00,
2.800000e+00,
1.600000e+00,
2.800000e+00,
2.800000e+00,
1.600000e+00,
1.600000e+00,
2.800000e+00,
1.600000e+00,
2.800000e+00,
1.600000e+00,
2.800000e+00,
1.600000e+00,
2.800000e+00,
1.600000e+00,
2.800000e+00,
1.600000e+00,
2.800000e+00,
2.800000e+00,
1.600000e+00,
1.600000e+00,
2.800000e+00,
1.600000e+00,
2.800000e+00,
2.800000e+00,
1.600000e+00,
2.800000e+00,
1.600000e+00,
2.800000e+00,
1.600000e+00,
2.800000e+00,
1.600000e+00,
1.600000e+00,
2.800000e+00,
1.600000e+00,
2.800000e+00,
2.800000e+00,
1.600000e+00,
1.600000e+00,
2.800000e+00,
1.600000e+00,
2.800000e+00,
2.800000e+00,
1.600000e+00,
2.800000e+00,
1.600000e+00,
2.800000e+00,
1.600000e+00,
1.600000e+00,
2.800000e+00,
1.600000e+00,
2.800000e+00,
1.600000e+00,
2.800000e+00,
2.800000e+00,
1.600000e+00,
1.600000e+00,
2.800000e+00,
2.800000e+00,
1.600000e+00,
1.600000e+00,
2.800000e+00,
2.800000e+00,
1.600000e+00,
2.800000e+00,
1.600000e+00,
1.600000e+00,
2.800000e+00,
1.600000e+00,
2.800000e+00,
1.600000e+00,
2.800000e+00,
1.600000e+00,
2.800000e+00,
1.600000e+00,
2.800000e+00,
2.800000e+00,
1.600000e+00,
1.600000e+00,
2.800000e+00,
1.600000e+00,
2.800000e+00,
1.600000e+00,
2.800000e+00,
1.600000e+00,
2.800000e+00,
1.600000e+00,
2.800000e+00,
1.600000e+00,
2.800000e+00,
1.600000e+00,
2.800000e+00,
2.800000e+00,
1.600000e+00,
1.600000e+00,
2.800000e+00,
2.800000e+00,
1.600000e+00,
2.800000e+00,
1.600000e+00,
2.800000e+00,
1.600000e+00,
1.600000e+00,
2.800000e+00,
2.800000e+00,
1.600000e+00,
1.600000e+00,
2.800000e+00,
1.600000e+00,
2.800000e+00,
1.600000e+00,
2.800000e+00,
2.800000e+00,
1.600000e+00,
1.600000e+00,
2.800000e+00,
2.800000e+00,
1.600000e+00,
2.800000e+00,
1.600000e+00,
1.600000e+00,
2.800000e+00,
2.800000e+00,
1.600000e+00,
1.600000e+00,
2.800000e+00,
1.600000e+00,
2.800000e+00,
2.800000e+00,
1.600000e+00,
2.800000e+00,
1.600000e+00,
1.600000e+00,
2.800000e+00,
1.600000e+00,
2.800000e+00,
1.600000e+00,
2.800000e+00,
2.800000e+00,
1.600000e+00,
1.600000e+00,
2.800000e+00,
1.600000e+00,
2.800000e+00,
2.800000e+00,
1.600000e+00,
2.800000e+00,
1.600000e+00,
1.600000e+00,
2.800000e+00,
2.800000e+00,
1.600000e+00,
1.600000e+00,
2.800000e+00,
2.800000e+00,
1.600000e+00,
2.800000e+00,
1.600000e+00,
1.600000e+00,
2.800000e+00,
1.600000e+00,
2.800000e+00,
1.600000e+00,
2.800000e+00,
1.600000e+00,
2.800000e+00,
1.600000e+00,
2.800000e+00,
1.600000e+00,
2.800000e+00,
2.800000e+00,
1.600000e+00,
1.600000e+00,
2.800000e+00,
1.600000e+00,
2.800000e+00,
1.600000e+00,
2.800000e+00,
2.800000e+00,
1.600000e+00,
1.600000e+00,
2.800000e+00,
2.800000e+00,
1.600000e+00,
1.600000e+00,
2.800000e+00,
1.600000e+00,
2.800000e+00,
1.600000e+00,
7.600000e+00,
7.200000e+00,
8.000000e+00,
8.000000e+00,
-1.360000e+01,
-1.320000e+01,
-1.200000e+01,
-1.280000e+01,
-1.240000e+01,
-1.240000e+01,
-1.280000e+01,
-1.280000e+01,
-1.240000e+01,
-1.240000e+01,
-1.280000e+01,
-1.240000e+01,
-1.280000e+01,
-1.280000e+01,
-1.240000e+01,
-1.240000e+01,
-1.280000e+01,
-1.280000e+01,
-1.240000e+01,
-1.240000e+01,
-1.280000e+01,
-1.240000e+01,
-1.280000e+01,
-1.280000e+01,
-1.240000e+01,
-1.240000e+01,
-1.280000e+01,
-1.240000e+01,
-1.280000e+01,
-1.280000e+01,
-1.240000e+01,
-1.240000e+01,
-1.280000e+01,
-1.240000e+01,
-1.280000e+01,
-1.240000e+01,
-1.280000e+01,
-1.240000e+01,
-1.280000e+01,
-1.280000e+01,
-1.200000e+01,
-1.240000e+01,
-1.280000e+01,
-1.280000e+01,
-1.200000e+01,
-1.280000e+01,
-1.200000e+01,
-1.280000e+01,
-1.200000e+01,
-1.280000e+01,
-1.200000e+01,
-1.280000e+01,
-1.200000e+01,
-1.280000e+01,
-1.200000e+01,
-1.280000e+01,
-1.200000e+01,
-1.280000e+01,
-1.200000e+01,
-1.280000e+01,
-1.200000e+01,
-1.280000e+01,
-1.200000e+01,
-1.280000e+01,
-1.200000e+01,
-1.280000e+01,
-1.200000e+01,
-1.280000e+01,
-1.200000e+01,
-1.280000e+01,
-1.200000e+01,
-1.280000e+01,
-1.200000e+01,
-1.280000e+01,
-1.200000e+01,
-1.280000e+01,
-1.200000e+01,
-1.280000e+01,
-1.200000e+01,
-1.280000e+01,
-1.200000e+01,
-1.200000e+01,
-1.280000e+01,
-1.280000e+01,
-1.200000e+01,
-1.280000e+01,
-1.200000e+01,
-1.200000e+01,
-1.280000e+01,
-1.280000e+01,
-1.200000e+01,
-1.200000e+01,
-1.280000e+01,
-1.800000e+01,
-5.600000e+00,
-5.600000e+00,
1.600000e+00,
1.600000e+00,
2.800000e+00,
2.800000e+00,
1.600000e+00,
2.800000e+00,
1.600000e+00,
2.800000e+00,
1.600000e+00,
1.600000e+00,
2.800000e+00,
1.600000e+00,
2.800000e+00,
2.800000e+00,
1.600000e+00,
1.600000e+00,
2.800000e+00,
1.600000e+00,
2.800000e+00,
1.600000e+00,
2.800000e+00,
2.800000e+00,
1.600000e+00,
2.800000e+00,
1.600000e+00,
2.800000e+00,
1.600000e+00,
1.600000e+00,
2.800000e+00,
1.600000e+00,
2.800000e+00,
1.600000e+00,
2.800000e+00,
1.600000e+00,
2.800000e+00,
2.800000e+00,
1.600000e+00,
2.800000e+00,
1.600000e+00,
1.600000e+00,
2.800000e+00,
1.600000e+00,
2.800000e+00,
1.600000e+00,
2.800000e+00,
1.600000e+00,
2.800000e+00,
1.600000e+00,
2.800000e+00,
1.600000e+00,
2.800000e+00,
1.600000e+00,
2.800000e+00,
1.600000e+00,
2.800000e+00,
2.800000e+00,
1.600000e+00,
1.600000e+00,
2.800000e+00,
1.600000e+00,
2.800000e+00,
1.600000e+00,
2.800000e+00,
1.600000e+00,
2.800000e+00,
1.600000e+00,
2.800000e+00,
1.600000e+00,
2.800000e+00,
1.600000e+00,
2.800000e+00,
1.600000e+00,
2.800000e+00,
1.600000e+00,
2.800000e+00,
2.800000e+00,
1.600000e+00,
1.600000e+00,
2.800000e+00,
1.600000e+00,
2.800000e+00,
2.800000e+00,
1.600000e+00,
1.600000e+00,
2.800000e+00,
1.600000e+00,
2.800000e+00,
1.600000e+00,
2.800000e+00,
2.800000e+00,
1.600000e+00,
1.600000e+00,
2.800000e+00,
2.800000e+00,
1.600000e+00,
2.800000e+00,
1.600000e+00,
2.800000e+00,
1.600000e+00,
2.800000e+00,
1.600000e+00,
